{	
	"COMMON": [
		{ 'display': '기본정보', 'value': '기본정보' },
                { 'display': '기본 정보', 'value': '기본 정보' },
                { 'display': '요청등록', 'value': 'REQUST_REGIST' },
		{ 'display': '서비스데스크 접수', 'value': 'SRDSK_RCEPT' },
		{ 'display': '요청확인', 'value': 'REQUST_CNFIRM' },
		{ 'display': '결과통보', 'value': 'RESULT_DSPTH' },
		{ 'display': '결과확인', 'value': 'RESULT_CNFIRM' },
		{ 'display': '종료편집', 'value': 'END_EDIT' },
		{ 'display': '종료보기', 'value': 'END_VIEW' },
		{ 'display': '멀티종료편집', 'value': 'MULTI_END_EDIT' },
		{ 'display': '멀티종료보기', 'value': 'MULTI_END_VIEW' }
	],"SERVICE_MAIN": [
		 { 'display': '요청등록', 'value': 'REQUST_REGIST' }
               , { 'display': '요청부서결재', 'value': 'REQ_CUST_APPROVAL' }
               , { 'display': 'SM기획결재', 'value': 'SM_APPROVAL' }
               , { 'display': '요청접수', 'value': 'REQUST_RCEPT' }
               , { 'display': '처리 및 완료', 'value': 'PROC_COMPLETE' }
               , { 'display': '관리자확인', 'value': 'MANAGER_CNFIRM' }
               , { 'display': '임시TASK', 'value': 'TEMP_LINK' }
	],"SERVICE_TESTA": [
		 { 'display': '요청등록', 'value': 'REQUST_REGIST' }
               , { 'display': '요청접수및검토', 'value': 'REQUST_RCEPT' }
               , { 'display': '요청처리승인', 'value': 'REQUST_CNFIRM' }
               , { 'display': '작업수행및결과통보', 'value': 'SERVICE_MANAGT' }
               , { 'display': '결과확인', 'value': 'RESULT_CNFIRM' }
	],"SERVICE_TESTB": [
		 { 'display': '요청등록', 'value': 'REQUST_REGIST' }
               , { 'display': '요청접수및검토', 'value': 'REQUST_RCEPT' }
               , { 'display': '요청처리승인', 'value': 'REQUST_CNFIRM' }
               , { 'display': '작업수행및결과통보', 'value': 'SERVICE_MANAGT' }
               , { 'display': '결과확인', 'value': 'RESULT_CNFIRM' }
	],"SERVICE_TESTC": [
		 { 'display': '요청등록', 'value': 'REQUST_REGIST' }
               , { 'display': '요청접수및검토', 'value': 'REQUST_RCEPT' }
               , { 'display': '요청처리승인', 'value': 'REQUST_CNFIRM' }
               , { 'display': '작업수행및결과통보', 'value': 'SERVICE_MANAGT' }
               , { 'display': '결과확인', 'value': 'RESULT_CNFIRM' }
	],"SERVICE_RECORD_INSERT": [
		 { 'display': '요청등록', 'value': 'REQUST_REGIST' }
               , { 'display': '요청부서결재', 'value': 'REQ_CUST_APPROVAL' }
               , { 'display': 'SM기획결재', 'value': 'SM_APPROVAL' }
               , { 'display': '요청접수', 'value': 'REQUST_RCEPT' }
               , { 'display': '처리 및 완료', 'value': 'PROC_COMPLETE' }
               , { 'display': '관리자확인', 'value': 'MANAGER_CNFIRM' }
               , { 'display': '임시TASK', 'value': 'TEMP_LINK' }
	],"SERVICE_RECORD_CHANGE": [
		 { 'display': '요청등록', 'value': 'REQUST_REGIST' }
               , { 'display': '요청부서결재', 'value': 'REQ_CUST_APPROVAL' }
               , { 'display': 'SM기획결재', 'value': 'SM_APPROVAL' }
               , { 'display': '요청접수', 'value': 'REQUST_RCEPT' }
               , { 'display': '처리 및 완료', 'value': 'PROC_COMPLETE' }
               , { 'display': '관리자확인', 'value': 'MANAGER_CNFIRM' }
               , { 'display': '임시TASK', 'value': 'TEMP_LINK' }
	],"SERVICE_RECORD_DELETE": [
		 { 'display': '요청등록', 'value': 'REQUST_REGIST' }
               , { 'display': '요청부서결재', 'value': 'REQ_CUST_APPROVAL' }
               , { 'display': 'SM기획결재', 'value': 'SM_APPROVAL' }
               , { 'display': '요청접수', 'value': 'REQUST_RCEPT' }
               , { 'display': '처리 및 완료', 'value': 'PROC_COMPLETE' }
               , { 'display': '관리자확인', 'value': 'MANAGER_CNFIRM' }
               , { 'display': '임시TASK', 'value': 'TEMP_LINK' }
	],"SERVICE_ZONE_INSERT": [
		 { 'display': '요청등록', 'value': 'REQUST_REGIST' }
               , { 'display': '요청부서결재', 'value': 'REQ_CUST_APPROVAL' }
               , { 'display': 'SM기획결재', 'value': 'SM_APPROVAL' }
               , { 'display': '요청접수', 'value': 'REQUST_RCEPT' }
               , { 'display': '처리 및 완료', 'value': 'PROC_COMPLETE' }
               , { 'display': '관리자확인', 'value': 'MANAGER_CNFIRM' }
               , { 'display': '임시TASK', 'value': 'TEMP_LINK' }
	],"SERVICE_ZONE_DELETE": [
		 { 'display': '요청등록', 'value': 'REQUST_REGIST' }
               , { 'display': '요청부서결재', 'value': 'REQ_CUST_APPROVAL' }
               , { 'display': 'SM기획결재', 'value': 'SM_APPROVAL' }
               , { 'display': '요청접수', 'value': 'REQUST_RCEPT' }
               , { 'display': '처리 및 완료', 'value': 'PROC_COMPLETE' }
               , { 'display': '관리자확인', 'value': 'MANAGER_CNFIRM' }
               , { 'display': '임시TASK', 'value': 'TEMP_LINK' }
	],"CHANGE": [
		 { 'display': '변경등록', 'value': 'REQUST_REGIST' }
               , { 'display': '변경계획수립', 'value': 'CHANGE_PLAN' }
               , { 'display': 'CAB소집', 'value': 'CAB_NOTI' }
               , { 'display': 'CAB소집결과작성', 'value': 'CAB_RESULT' }
               , { 'display': 'CAB결과승인', 'value': 'CAB_CNFIRM' }
               , { 'display': '승인자확인', 'value': 'APPROVER_CNFIRM' }
               , { 'display': '변경계획승인', 'value': 'CHANGE_PLAN_CNFIRM' }
               , { 'display': '변경수행결과', 'value': 'CHANGE_RESULT' }
               , { 'display': '결과확인', 'value': 'RESULT_CNFIRM' }
	]
}