{	
	"COMMON": {
		"TablePanel": [
			{ 'display': '기본정보', 'title': '기본정보', 'type': 'table', 'internal_id': 'bass_info', 'formType': 'display'  },
                        { 'display': '기본 정보', 'title': '기본 정보', 'type': 'table', 'internal_id': 'ser_bass_info', 'formType': 'display'  },
			{ 'display': '요청등록', 'title': '요청등록', 'type': 'table', 'internal_id': 'requst_regist', 'formType': 'editor' },
                        { 'display': '서비스데스크 접수', 'title': '서비스데스크 접수', 'type': 'table', 'internal_id': 'srdsk_rcept', 'formType': 'editor' },
			{ 'display': '요청분류', 'title': '요청분류', 'type': 'table', 'internal_id': 'requst_cl', 'formType': 'editor' },
                        { 'display': '요청확인', 'title': '요청확인', 'type': 'table', 'internal_id': 'requst_cnfirm', 'formType': 'editor' },
			{ 'display': '결과통보', 'title': '결과통보', 'type': 'table', 'internal_id': 'result_dspth', 'formType': 'editor' },
			{ 'display': '결과확인', 'title': '결과확인', 'type': 'table', 'internal_id': 'result_cnfirm', 'formType': 'editor' }
		],
		"Grid": [
			{ 'display': '변경', 'title': '협력업체', 'type': 'grid', 'internal_id': 'vendor_gird', 'resource_prefix': 'grid.cipop.sampleasset', 'url': '/itg/system/userGrp/searchProcessAuthList.do'  },
			{ 'display': '문제', 'title': '사용자정보', 'type': 'grid', 'internal_id': 'user_gird', 'resource_prefix': 'grid.cipop.sampleasset', 'url': '/itg/system/userGrp/searchProcessAuthList.do' }
		],
		"AddGrid": [
			{ 	
				'display': '구성자원조회', 'title': '구성자원조회', 'type': 'addgrid', 'internal_id': 'setCiAssetGrid', 'gridType': 'editor', 'resource_prefix': 'grid.cipop.sampleasset', 
				'url': '/itg/system/userGrp/searchProcessAuthList.do', 'callFunc': 'ciGridActionLink', 'dockLoc': 'bottom', 'dockedType': 'toolbar',
				'addBtnId': 'ciAddBtn', 'addBtnLabel': '#springMessage("btn.common.append.trim")', 'addBtnAction': 'createCiAssetTreePop("setCiAssetGrid")',
				'delBtnId': 'ciDelBtn', 'delBtnLabel': '#springMessage("btn.common.remove.trim")', 'delBtnAction': 'selectedRowDel("setCiAssetGrid")'
			} ,
                        { 	
				'display': '사업수행예산', 'title': '사업수행예산', 'type': 'addgrid', 'internal_id': 'setInspectionGrid', 'gridType': 'editor', 'resource_prefix': 'grid.nice.inspection.budge.pop', 
				'url': '/itg/customize/nice/searchInspectionBudgeList.do', 'callFunc': 'budgeGridActionLink', 'dockLoc': 'bottom', 'dockedType': 'toolbar',
				'addBtnId': 'budgeAddBtn', 'addBtnLabel': '#springMessage("btn.common.append.trim")', 'addBtnAction': 'createBudgePop("setInspectionGrid")',
				'delBtnId': 'budgeDelBtn', 'delBtnLabel': '#springMessage("btn.common.remove.trim")', 'delBtnAction': 'selectedRowDel("setInspectionGrid")'
			}
		],
		"ProcessSubGrid": [
			{ 'display': '서비스연계요청', 'title': '서비스연계요청', 'type': 'processsubgrid', 'internal_id': 'requst_regist_grid', 'resource_prefix': 'grid.process.link.rel',
				'selectQuerykey': 'searchLinkRelProcess', 'insertQuerykey': '', 'deleteQuerykey': '', 'gridType': 'editor'
			},
                        { 'display': '연계요청', 'title': '연계요청', 'type': 'processsubgrid', 'internal_id': 'requst_rcept_grid', 'resource_prefix': 'grid.process.link.rel',
				'selectQuerykey': 'searchLinkRelProcess', 'insertQuerykey': '', 'deleteQuerykey': '', 'gridType': 'editor'
			},
			{ 'display': '이메일발송대상자', 'title': '이메일발송대상자', 'type': 'processsubgrid', 'internal_id': 'email_send', 'resource_prefix': 'grid.process.email.send',
				'selectQuerykey': 'selectPROC_EMAIL_SEND', 'insertQuerykey': 'insertPROC_EMAIL_SEND', 'deleteQuerykey': 'deletePROC_EMAIL_SEND', 'gridType': 'editor'
			},
			{ 'display': '투입자원', 'title': '투입자원', 'type': 'processsubgrid', 'internal_id': 'insert_resources', 'resource_prefix': 'grid.process.insert.resources',
				'selectQuerykey': 'selectSERVICE_RESOURCES', 'insertQuerykey': 'insertSERVICE_RESOURCES', 'deleteQuerykey': 'deleteSERVICE_RESOURCES', 'gridType': 'editor'
			},
			{ 'display': 'ubit테스트용그리드1', 'title': 'ubit테스트용그리드1', 'type': 'processsubgrid', 'internal_id': 'ubit_test1', 'resource_prefix': 'grid.process.insert.resources',
				'selectQuerykey': 'selectSERVICE_RESOURCES', 'insertQuerykey': 'insertSERVICE_RESOURCES', 'deleteQuerykey': 'deleteSERVICE_RESOURCES', 'gridType': 'editor'
			},
			{ 'display': 'ubit테스트용그리드2', 'title': 'ubit테스트용그리드2', 'type': 'processsubgrid', 'internal_id': 'ubit_test2', 'resource_prefix': 'grid.process.insert.resources',
				'selectQuerykey': 'selectSERVICE_RESOURCES', 'insertQuerykey': 'insertSERVICE_RESOURCES', 'deleteQuerykey': 'deleteSERVICE_RESOURCES', 'gridType': 'editor'
			},
                        { 	
				'display':'요구사항처리(멀티)', 'title': '요구사항처리(멀티)', 'type': 'addoperatorgrid', 'internal_id': 'embdComptSelectGrid', 'gridType': 'editor', 'resource_prefix': 'grid.process.oper', 
				'url': '', 'callFunc': 'operatorGridActionLink', 'roleId': 'ROLE_OPETR_03', 'dockLoc': 'bottom', 'dockedType': 'toolbar',
				'addBtnId': 'userAddBtn', 'addBtnLabel': '추가', 'addBtnAction': 'clickAddBtnInOperUserGrid("operUserSelectGrid")',
				'delBtnId': 'userDelBtn', 'delBtnLabel': '삭제', 'delBtnAction': 'clickDeleteBtnInOperUserGrid("operUserSelectGrid")'
			},
			{ 	
				'display':'통합테스트(멀티)', 'title': '통합테스트(멀티)', 'type': 'addoperatorgrid', 'internal_id': 'unityTestSelectGrid', 'gridType': 'editor', 'resource_prefix': 'grid.process.oper', 
				'url': '', 'callFunc': 'operatorGridActionLink', 'roleId': 'ROLE_OPETR_04', 'dockLoc': 'bottom', 'dockedType': 'toolbar',
				'addBtnId': 'userAddBtn', 'addBtnLabel': '추가', 'addBtnAction': 'clickAddBtnInOperUserGrid("operUserSelectGrid")',
				'delBtnId': 'userDelBtn', 'delBtnLabel': '삭제', 'delBtnAction': 'clickDeleteBtnInOperUserGrid("operUserSelectGrid")'
			},
                        { 	
				'display': '사업수행예산', 'title': '사업수행예산', 'type': 'processsubgrid', 'internal_id': 'setInspectionGrid', 'resource_prefix': 'grid.nice.inspection.budge.pop',
				'selectQuerykey': 'selectPROC_INSSUB_LINK', 'insertQuerykey': 'insertPROC_INSSUB_LINK', 'deleteQuerykey': 'deletePROC_INSSUB_LINK', 'gridType': 'editor',
				'addBtnId': 'userAddBtn', 'addBtnLabel': '추가', 'addBtnAction': 'addInspectionBudge("setInspectionGrid")',
				'delBtnId': 'userDelBtn', 'delBtnLabel': '삭제', 'delBtnAction': 'deleteInspectionBudge("setInspectionGrid")'
			}			
		],
                "AddOperatorGrid": [   
			{ 	
				'display': 'CAB승인자', 'title': 'CAB승인자', 'type': 'addoperatorgrid', 'internal_id': 'cabOperUserSelectGrid', 'gridType': 'editor', 'resource_prefix': 'grid.process.oper', 
				'url': '', 'callFunc': 'operatorGridActionLink', 'roleId': 'role3', 'dockLoc': 'bottom', 'dockedType': 'toolbar',
				'addBtnId': 'userAddBtn', 'addBtnLabel': '추가', 'addBtnAction': 'clickAddBtnInOperUserGrid("operUserSelectGrid")',
				'delBtnId': 'userDelBtn', 'delBtnLabel': '삭제', 'delBtnAction': 'clickDeleteBtnInOperUserGrid("operUserSelectGrid")'
			},
			{ 	
				'display': '공동작업자', 'title': '공동작업자', 'type': 'addoperatorgrid', 'internal_id': 'commOperUserSelectGrid', 'gridType': 'editor', 'resource_prefix': 'grid.process.oper', 
				'url': '', 'callFunc': 'operatorGridActionLink', 'roleId': 'role1', 'dockLoc': 'bottom', 'dockedType': 'toolbar',
				'addBtnId': 'userAddBtn', 'addBtnLabel': '추가', 'addBtnAction': 'clickAddBtnInOperUserGrid("operUserSelectGrid")',
				'delBtnId': 'userDelBtn', 'delBtnLabel': '삭제', 'delBtnAction': 'clickDeleteBtnInOperUserGrid("operUserSelectGrid")'
			}			
		],
               "MultiTaskGrid": [
			{ 	
				'display': '협업처리', 'title': '협업처리', 'type': 'multitaskgrid', 'internal_id': 'crMultiTaskGrid', 'gridType': 'editor', 'resource_prefix': 'grid.process.change.multitask', 
				'url': '', 'roleId': 'ROLE_OPETR_02', 'gridType': 'editor', 'editorMode' : 'true', 'tableName' : 'PROC_MULTI_CR', 'gridHeight' : '250', 'eventName': 'MULTI_CR_PROC'
			}
		],
"ProcessGridField": [			
                       { 
                                'display': '작업체크리스트', 'title': '작업체크리스트', 'type': 'processgridfield', 'internal_id': 'checklist_grid', 'name': 'checklist_grid', 'resource_prefix': 'grid.process.checklist.ubit', 'url': '/itg/workflow/workCheckList/searchWorkSrCheckList.do',
				'selectQuerykey': 'searchWorkSrCheckListList', 'insertQuerykey': 'insertWorkSrCheckList', 'deleteQuerykey': '', 'gridType': 'editor', 'popUpType':'checklistGrid'
			},
                       { 
                                'display': '그리드필드테스트1', 'title': '그리드필드테스트1', 'type': 'processgridfield', 'internal_id': 'grid_field_test1', 'name': 'grid_field_test1', 'resource_prefix': 'grid.process.checklist.ubit', 'url': '/itg/workflow/workCheckList/searchWorkSrCheckList.do',
				'selectQuerykey': 'searchWorkSrCheckListList', 'insertQuerykey': 'insertWorkSrCheckList', 'deleteQuerykey': '', 'gridType': 'editor', 'popUpType':'test'
			},
                       { 
                                'display': '그리드필드테스트2', 'title': '그리드필드테스트2', 'type': 'processgridfield', 'internal_id': 'grid_field_test2', 'name': 'grid_field_test2', 'resource_prefix': 'grid.process.checklist.ubit', 'url': '/itg/workflow/workCheckList/searchWorkSrCheckList.do',
				'selectQuerykey': 'searchWorkSrCheckListList', 'insertQuerykey': 'insertWorkSrCheckList', 'deleteQuerykey': '', 'gridType': 'editor', 'popUpType':'test'
			},
                       { 
                                'display': '그리드필드테스트3', 'title': '그리드필드테스트3', 'type': 'processgridfield', 'internal_id': 'grid_field_test3', 'name': 'grid_field_test3', 'resource_prefix': 'grid.process.checklist.ubit', 'url': '/itg/workflow/workCheckList/searchWorkSrCheckList.do',
				'selectQuerykey': 'searchWorkSrCheckListList', 'insertQuerykey': 'insertWorkSrCheckList', 'deleteQuerykey': '', 'gridType': 'editor', 'popUpType':'test'
			},
                       { 
                                'display': '그리드필드테스트4', 'title': '그리드필드테스트4', 'type': 'processgridfield', 'internal_id': 'grid_field_test4', 'name': 'grid_field_test4', 'resource_prefix': 'grid.process.checklist.ubit', 'url': '/itg/workflow/workCheckList/searchWorkSrCheckList.do',
				'selectQuerykey': 'searchWorkSrCheckListList', 'insertQuerykey': 'insertWorkSrCheckList', 'deleteQuerykey': '', 'gridType': 'editor', 'popUpType':'test'
			},
                       { 
                                'display': '그리드필드테스트5', 'title': '그리드필드테스트5', 'type': 'processgridfield', 'internal_id': 'grid_field_test5', 'name': 'grid_field_test5', 'resource_prefix': 'grid.process.checklist.ubit', 'url': '/itg/workflow/workCheckList/searchWorkSrCheckList.do',
				'selectQuerykey': 'searchWorkSrCheckListList', 'insertQuerykey': 'insertWorkSrCheckList', 'deleteQuerykey': '', 'gridType': 'editor', 'popUpType':'test'
			},
                       { 
                                'display': '그리드필드테스트6', 'title': '그리드필드테스트6', 'type': 'processgridfield', 'internal_id': 'grid_field_test6', 'name': 'grid_field_test6', 'resource_prefix': 'grid.process.checklist.ubit', 'url': '/itg/workflow/workCheckList/searchWorkSrCheckList.do',
				'selectQuerykey': 'searchWorkSrCheckListList', 'insertQuerykey': 'insertWorkSrCheckList', 'deleteQuerykey': '', 'gridType': 'editor', 'popUpType':'test'
			},
                       { 
                                'display': '그리드필드테스트7', 'title': '그리드필드테스트7', 'type': 'processgridfield', 'internal_id': 'grid_field_test7', 'name': 'grid_field_test7', 'resource_prefix': 'grid.process.checklist.ubit', 'url': '/itg/workflow/workCheckList/searchWorkSrCheckList.do',
				'selectQuerykey': 'searchWorkSrCheckListList', 'insertQuerykey': 'insertWorkSrCheckList', 'deleteQuerykey': '', 'gridType': 'editor', 'popUpType':'test'
			},
                       { 
                                'display': '그리드필드테스트8', 'title': '그리드필드테스트8', 'type': 'processgridfield', 'internal_id': 'grid_field_test8', 'name': 'grid_field_test8', 'resource_prefix': 'grid.process.checklist.ubit', 'url': '/itg/workflow/workCheckList/searchWorkSrCheckList.do',
				'selectQuerykey': 'searchWorkSrCheckListList', 'insertQuerykey': 'insertWorkSrCheckList', 'deleteQuerykey': '', 'gridType': 'editor', 'popUpType':'test'
			},
                       { 
                                'display': '그리드필드테스트9', 'title': '그리드필드테스트9', 'type': 'processgridfield', 'internal_id': 'grid_field_test9', 'name': 'grid_field_test9', 'resource_prefix': 'grid.process.checklist.ubit', 'url': '/itg/workflow/workCheckList/searchWorkSrCheckList.do',
				'selectQuerykey': 'searchWorkSrCheckListList', 'insertQuerykey': 'insertWorkSrCheckList', 'deleteQuerykey': '', 'gridType': 'editor', 'popUpType':'test'
			},
                       { 
                                'display': '그리드필드테스트10', 'title': '그리드필드테스트10', 'type': 'processgridfield', 'internal_id': 'grid_field_test10', 'name': 'grid_field_test10', 'resource_prefix': 'grid.process.checklist.ubit', 'url': '/itg/workflow/workCheckList/searchWorkSrCheckList.do',
				'selectQuerykey': 'searchWorkSrCheckListList', 'insertQuerykey': 'insertWorkSrCheckList', 'deleteQuerykey': '', 'gridType': 'editor', 'popUpType':'test'
			},
                       { 
                                'display': '그리드필드테스트11', 'title': '그리드필드테스트11', 'type': 'processgridfield', 'internal_id': 'grid_field_test11', 'name': 'grid_field_test11', 'resource_prefix': 'grid.process.checklist.ubit', 'url': '/itg/workflow/workCheckList/searchWorkSrCheckList.do',
				'selectQuerykey': 'searchWorkSrCheckListList', 'insertQuerykey': 'insertWorkSrCheckList', 'deleteQuerykey': '', 'gridType': 'editor', 'popUpType':'test'
			},
                       { 
                                'display': '그리드필드테스트12', 'title': '그리드필드테스트12', 'type': 'processgridfield', 'internal_id': 'grid_field_test12', 'name': 'grid_field_test12', 'resource_prefix': 'grid.process.checklist.ubit', 'url': '/itg/workflow/workCheckList/searchWorkSrCheckList.do',
				'selectQuerykey': 'searchWorkSrCheckListList', 'insertQuerykey': 'insertWorkSrCheckList', 'deleteQuerykey': '', 'gridType': 'editor', 'popUpType':'test'
			},
                       { 
                                'display': '그리드필드테스트13', 'title': '그리드필드테스트13', 'type': 'processgridfield', 'internal_id': 'grid_field_test13', 'name': 'grid_field_test13', 'resource_prefix': 'grid.process.checklist.ubit', 'url': '/itg/workflow/workCheckList/searchWorkSrCheckList.do',
				'selectQuerykey': 'searchWorkSrCheckListList', 'insertQuerykey': 'insertWorkSrCheckList', 'deleteQuerykey': '', 'gridType': 'editor', 'popUpType':'test'
			},
                       { 
                                'display': '그리드필드테스트14', 'title': '그리드필드테스트14', 'type': 'processgridfield', 'internal_id': 'grid_field_test14', 'name': 'grid_field_test14', 'resource_prefix': 'grid.process.checklist.ubit', 'url': '/itg/workflow/workCheckList/searchWorkSrCheckList.do',
				'selectQuerykey': 'searchWorkSrCheckListList', 'insertQuerykey': 'insertWorkSrCheckList', 'deleteQuerykey': '', 'gridType': 'editor', 'popUpType':'test'
			},
                       { 
                                'display': '그리드필드테스트15', 'title': '그리드필드테스트15', 'type': 'processgridfield', 'internal_id': 'grid_field_test15', 'name': 'grid_field_test15', 'resource_prefix': 'grid.process.checklist.ubit', 'url': '/itg/workflow/workCheckList/searchWorkSrCheckList.do',
				'selectQuerykey': 'searchWorkSrCheckListList', 'insertQuerykey': 'insertWorkSrCheckList', 'deleteQuerykey': '', 'gridType': 'editor', 'popUpType':'test'
			},
                       { 
                                'display': '그리드필드테스트16', 'title': '그리드필드테스트16', 'type': 'processgridfield', 'internal_id': 'grid_field_test16', 'name': 'grid_field_test16', 'resource_prefix': 'grid.process.checklist.ubit', 'url': '/itg/workflow/workCheckList/searchWorkSrCheckList.do',
				'selectQuerykey': 'searchWorkSrCheckListList', 'insertQuerykey': 'insertWorkSrCheckList', 'deleteQuerykey': '', 'gridType': 'editor', 'popUpType':'test'
			},
                       { 
                                'display': '그리드필드테스트17', 'title': '그리드필드테스트17', 'type': 'processgridfield', 'internal_id': 'grid_field_test17', 'name': 'grid_field_test17', 'resource_prefix': 'grid.process.checklist.ubit', 'url': '/itg/workflow/workCheckList/searchWorkSrCheckList.do',
				'selectQuerykey': 'searchWorkSrCheckListList', 'insertQuerykey': 'insertWorkSrCheckList', 'deleteQuerykey': '', 'gridType': 'editor', 'popUpType':'test'
			},
                       { 
                                'display': '그리드필드테스트18', 'title': '그리드필드테스트18', 'type': 'processgridfield', 'internal_id': 'grid_field_test18', 'name': 'grid_field_test18', 'resource_prefix': 'grid.process.checklist.ubit', 'url': '/itg/workflow/workCheckList/searchWorkSrCheckList.do',
				'selectQuerykey': 'searchWorkSrCheckListList', 'insertQuerykey': 'insertWorkSrCheckList', 'deleteQuerykey': '', 'gridType': 'editor', 'popUpType':'test'
			},
                       { 
                                'display': '그리드필드테스트19', 'title': '그리드필드테스트19', 'type': 'processgridfield', 'internal_id': 'grid_field_test19', 'name': 'grid_field_test19', 'resource_prefix': 'grid.process.checklist.ubit', 'url': '/itg/workflow/workCheckList/searchWorkSrCheckList.do',
				'selectQuerykey': 'searchWorkSrCheckListList', 'insertQuerykey': 'insertWorkSrCheckList', 'deleteQuerykey': '', 'gridType': 'editor', 'popUpType':'test'
			},
                       { 
                                'display': '그리드필드테스트20', 'title': '그리드필드테스트20', 'type': 'processgridfield', 'internal_id': 'grid_field_test20', 'name': 'grid_field_test20', 'resource_prefix': 'grid.process.checklist.ubit', 'url': '/itg/workflow/workCheckList/searchWorkSrCheckList.do',
				'selectQuerykey': 'searchWorkSrCheckListList', 'insertQuerykey': 'insertWorkSrCheckList', 'deleteQuerykey': '', 'gridType': 'editor', 'popUpType':'test'
			},
                       { 
                                'display': '작업절차', 'title': '작업절차', 'type': 'processgridfield', 'internal_id': 'work_step', 'name': 'work_step', 'resource_prefix': 'grid.process.workstep.ubit', 'url': '/itg/nbpm/common/searchProcessGridField.do',
				'selectQuerykey': 'selectWORK_STEP', 'insertQuerykey': 'insertWORK_STEP', 'deleteQuerykey': 'deleteWORK_STEP', 'gridType': 'editor', 'popUpType':'','requiredColumns': ["WORK_CONTENT", "WORK_USER_NM"],'editprops':[{'column': 'YN','attachChoice': true,'params': {'code_grp_id' : 'YN'}},{'column': 'ZONE','attachChoice': true,'params': {'code_grp_id' : 'ZONE'}}]
			},
                        { 	
				  'display': '도메인목록', 'title': '도메인목록', 'type': 'processgridfield', 'internal_id': 'zone_grid', 'name': 'zone_grid', 'resource_prefix': 'grid.process.dns.zone.list', 'url': '/itg/nbpm/common/searchProcessGridField.do',
				'selectQuerykey': 'selectPROC_DNS_ZONE_GRID', 'insertQuerykey': 'insertPROC_DNS_ZONE_GRID', 'deleteQuerykey': 'deletePROC_DNS_ZONE_GRID', 'gridType': 'editor', 'popUpType':'zoneInsert','requiredColumns': ['MGMT_PLACE','ZONE_ID_NM','BUY_SITE_CN','BUY_SITE_URL_CN','BUY_DT','EXPIRE_DT','BUY_USER','MGMT_USER'],'editprops':[{'column': 'MGMT_PLACE','attachChoice': true,'params': {'code_grp_id' : 'MGMT_PLACE'}}]
			},
                        { 	
				  'display': '삭제도메인목록', 'title': '삭제도메인목록', 'type': 'processgridfield', 'internal_id': 'zone_del_grid', 'name': 'zone_del_grid', 'resource_prefix': 'grid.process.dns.zone.del', 'url': '/itg/nbpm/common/searchProcessGridField.do',
				'selectQuerykey': 'selectPROC_DNS_ZONE_GRID', 'insertQuerykey': 'insertDELPROC_DNS_ZONE_GRID', 'deleteQuerykey': 'deletePROC_DNS_ZONE_GRID', 'gridType': 'editor', 'popUpType':'zoneSelect','editprops':[{'column': 'MGMT_PLACE','attachChoice': true,'params': {'code_grp_id' : 'MGMT_PLACE'}}]
			},
                       { 
                                'display': '레코드등록', 'title': "#springMessage('process.grid.record.000001')", 'type': 'processgridfield', 'internal_id': 'record_insert', 'name': 'record_insert', 'resource_prefix': 'grid.process.work.recordInsert', 'url': '/itg/nbpm/common/searchProcessGridField.do',
				'selectQuerykey': 'selectPROC_DNS_RECORD_GRID', 'insertQuerykey': 'insertPROC_DNS_RECORD_GRID', 'deleteQuerykey': 'deletePROC_DNS_RECORD_GRID', 'gridType': 'editor', 'popUpType':'recordInsert',
'editprops':[{'column': 'RECORD_TYPE_CD','attachChoice': false,'params': {'code_grp_id' : 'RECORD_TYPE_CD'}}]
			},
                       { 
                                'display': '레코드변경', 'title': "#springMessage('process.grid.record.000001')", 'type': 'processgridfield', 'internal_id': 'record_change', 'name': 'record_change', 'resource_prefix': 'grid.process.work.recordChange', 'url': '/itg/nbpm/common/searchProcessGridField.do',
				'selectQuerykey': 'selectPROC_DNS_RECORD_GRID', 'insertQuerykey': 'insertPROC_DNS_RECORD_GRID', 'deleteQuerykey': 'deletePROC_DNS_RECORD_GRID', 'gridType': 'editor', 'popUpType':'recordSerch',
'editprops':[{'column': 'RECORD_TYPE_CD','params': {'code_grp_id' : 'RECORD_TYPE_CD'}}]
			},
                       { 
                                'display': '레코드삭제', 'title': "#springMessage('process.grid.record.000001')", 'type': 'processgridfield', 'internal_id': 'record_delete', 'name': 'record_delete', 'resource_prefix': 'grid.process.work.recordDelete', 'url': '/itg/nbpm/common/searchProcessGridField.do',
				'selectQuerykey': 'selectPROC_DNS_RECORD_GRID', 'insertQuerykey': 'insertPROC_DNS_RECORD_GRID', 'deleteQuerykey': 'deletePROC_DNS_RECORD_GRID', 'gridType': 'editor', 'popUpType':'recordSerchDelete',
'editprops':[{'column': 'RECORD_TYPE_CD','params': {'code_grp_id' : 'RECORD_TYPE_CD'}}]
			}
		]
	},
"SERVICE_MAIN": {
		"TablePanel": [
			{ 'display': '요청등록', 'title': "#springMessage('process.resource.000001')", 'type': 'table', 'internal_id': 'requst_regist', 'formType': 'editor'}
                	,{ 'display': '요청부서결재', 'title': "#springMessage('process.resource.000002')", 'type': 'table', 'internal_id': 'req_cust_approval', 'formType': 'editor'}
                        ,{ 'display': 'SM기획결재', 'title': "#springMessage('process.resource.000003')", 'type': 'table', 'internal_id': 'sm_approval', 'formType': 'editor'}
                        ,{ 'display': '요청접수', 'title': "#springMessage('process.resource.000004')", 'type': 'table', 'internal_id': 'requst_rcept', 'formType': 'editor'}
                        ,{ 'display': '처리 및 완료', 'title': "#springMessage('process.resource.000005')", 'type': 'table', 'internal_id': 'proc_complete', 'formType': 'editor'}
                        ,{ 'display': '관리자확인', 'title': "#springMessage('process.resource.000006')", 'type': 'table', 'internal_id': 'manager_cnfirm', 'formType': 'editor'}
                        ,{ 'display': '임시TASK', 'title': "#springMessage('process.resource.000007')", 'type': 'table', 'internal_id': 'temp_link', 'formType': 'editor'}
		],
		"Grid": [],
		"AddGrid": [],
		"AddOperatorGrid": [],
               "MultiTaskGrid": []
	},
"SERVICE_TESTA": {
		"TablePanel": [
			{ 'display': '요청등록', 'title': "#springMessage('process.resource.000006')", 'type': 'table', 'internal_id': 'requst_regist', 'formType': 'editor'}
                	,{ 'display': '요청접수및검토', 'title': "1번테스트 요청접수", 'type': 'table', 'internal_id': 'requst_rcept', 'formType': 'editor'}
                        ,{ 'display': '요청처리승인', 'title': "1번테스트 요청처리", 'type': 'table', 'internal_id': 'requst_cnfirm', 'formType': 'editor'}
                        ,{ 'display': '작업수행및결과통보', 'title': "1번테스트 결과통보", 'type': 'table', 'internal_id': 'service_managt', 'formType': 'editor'}
                        ,{ 'display': '결과확인', 'title': "1번테스트 결과확인", 'type': 'table', 'internal_id': 'result_cnfirm', 'formType': 'editor'}
		],
		"Grid": [],
		"AddGrid": [],
		"AddOperatorGrid": [],
               "MultiTaskGrid": []
	},
"SERVICE_TESTB": {
		"TablePanel": [
			{ 'display': '요청등록', 'title': "#springMessage('process.resource.000007')", 'type': 'table', 'internal_id': 'requst_regist', 'formType': 'editor'}
                	,{ 'display': '요청접수및검토', 'title': "2번테스트 요청접수", 'type': 'table', 'internal_id': 'requst_rcept', 'formType': 'editor'}
                        ,{ 'display': '요청처리승인', 'title': "2번테스트 요청처리", 'type': 'table', 'internal_id': 'requst_cnfirm', 'formType': 'editor'}
                        ,{ 'display': '작업수행및결과통보', 'title': "2번테스트 결과통보", 'type': 'table', 'internal_id': 'service_managt', 'formType': 'editor'}
                        ,{ 'display': '결과확인', 'title': "2번테스트 결과확인", 'type': 'table', 'internal_id': 'result_cnfirm', 'formType': 'editor'}
		],
		"Grid": [],
		"AddGrid": [],
		"AddOperatorGrid": [],
               "MultiTaskGrid": []
	},
"SERVICE_TESTC": {
		"TablePanel": [
			{ 'display': '요청등록', 'title': "#springMessage('process.resource.000008')", 'type': 'table', 'internal_id': 'requst_regist', 'formType': 'editor'}
			,{ 'display': '그리드폼테스트', 'title': '그리드폼테스트', 'type': 'table', 'internal_id': 'grid_form', 'formType': 'editor'}
                	,{ 'display': '요청접수및검토', 'title': "3번테스트 요청접수", 'type': 'table', 'internal_id': 'requst_rcept', 'formType': 'editor'}
                        ,{ 'display': '요청처리승인', 'title': "3번테스트 요청처리", 'type': 'table', 'internal_id': 'requst_cnfirm', 'formType': 'editor'}
                        ,{ 'display': '작업수행및결과통보', 'title': "3번테스트 결과통보", 'type': 'table', 'internal_id': 'service_managt', 'formType': 'editor'}
                        ,{ 'display': '결과확인', 'title': "3번테스트 결과확인", 'type': 'table', 'internal_id': 'result_cnfirm', 'formType': 'editor'}
		],
		"Grid": [],
		"AddGrid": [],
		"AddOperatorGrid": [],
               "MultiTaskGrid": []
	},
"SERVICE_ZONE_INSERT": {
		"TablePanel": [
			{ 'display': '요청등록', 'title': "#springMessage('process.resource.000001')", 'type': 'table', 'internal_id': 'requst_regist', 'formType': 'editor'}
                	,{ 'display': '요청부서결재', 'title': "#springMessage('process.resource.000002')", 'type': 'table', 'internal_id': 'req_cust_approval', 'formType': 'editor'}
                        ,{ 'display': 'SM기획결재', 'title': "#springMessage('process.resource.000003')", 'type': 'table', 'internal_id': 'sm_approval', 'formType': 'editor'}
                        ,{ 'display': '요청접수', 'title': "#springMessage('process.resource.000004')", 'type': 'table', 'internal_id': 'requst_rcept', 'formType': 'editor'}
                        ,{ 'display': '처리 및 완료', 'title': "#springMessage('process.resource.000005')", 'type': 'table', 'internal_id': 'proc_complete', 'formType': 'editor'}
                        ,{ 'display': '관리자확인', 'title': "#springMessage('process.resource.000006')", 'type': 'table', 'internal_id': 'manager_cnfirm', 'formType': 'editor'}
                        ,{ 'display': '임시TASK', 'title': "#springMessage('process.resource.000007')", 'type': 'table', 'internal_id': 'temp_link', 'formType': 'editor'}
		],
		"Grid": [],
		"AddGrid": [],
		"AddOperatorGrid": [],
               "MultiTaskGrid": []
	},
"SERVICE_ZONE_DELETE": {
		"TablePanel": [
			{ 'display': '요청등록', 'title': "#springMessage('process.resource.000001')", 'type': 'table', 'internal_id': 'requst_regist', 'formType': 'editor'}
                	,{ 'display': '요청부서결재', 'title': "#springMessage('process.resource.000002')", 'type': 'table', 'internal_id': 'req_cust_approval', 'formType': 'editor'}
                        ,{ 'display': 'SM기획결재', 'title': "#springMessage('process.resource.000003')", 'type': 'table', 'internal_id': 'sm_approval', 'formType': 'editor'}
                        ,{ 'display': '요청접수', 'title': "#springMessage('process.resource.000004')", 'type': 'table', 'internal_id': 'requst_rcept', 'formType': 'editor'}
                        ,{ 'display': '처리 및 완료', 'title': "#springMessage('process.resource.000005')", 'type': 'table', 'internal_id': 'proc_complete', 'formType': 'editor'}
                        ,{ 'display': '관리자확인', 'title': "#springMessage('process.resource.000006')", 'type': 'table', 'internal_id': 'manager_cnfirm', 'formType': 'editor'}
                        ,{ 'display': '임시TASK', 'title': "#springMessage('process.resource.000007')", 'type': 'table', 'internal_id': 'temp_link', 'formType': 'editor'}
		],
		"Grid": [],
		"AddGrid": [],
		"AddOperatorGrid": [],
               "MultiTaskGrid": []
	},
"SERVICE_RECORD_INSERT": {
		"TablePanel": [
			{ 'display': '요청등록', 'title': "#springMessage('process.resource.000001')", 'type': 'table', 'internal_id': 'requst_regist', 'formType': 'editor'}
                	,{ 'display': '요청부서결재', 'title': "#springMessage('process.resource.000002')", 'type': 'table', 'internal_id': 'req_cust_approval', 'formType': 'editor'}
                        ,{ 'display': 'SM기획결재', 'title': "#springMessage('process.resource.000003')", 'type': 'table', 'internal_id': 'sm_approval', 'formType': 'editor'}
                        ,{ 'display': '요청접수', 'title': "#springMessage('process.resource.000004')", 'type': 'table', 'internal_id': 'requst_rcept', 'formType': 'editor'}
                        ,{ 'display': '처리 및 완료', 'title': "#springMessage('process.resource.000005')", 'type': 'table', 'internal_id': 'proc_complete', 'formType': 'editor'}
                        ,{ 'display': '관리자확인', 'title': "#springMessage('process.resource.000006')", 'type': 'table', 'internal_id': 'manager_cnfirm', 'formType': 'editor'}
                        ,{ 'display': '임시TASK', 'title': "#springMessage('process.resource.000007')", 'type': 'table', 'internal_id': 'temp_link', 'formType': 'editor'}
		],
		"Grid": [],
		"AddGrid": [],
		"AddOperatorGrid": [],
               "MultiTaskGrid": []
	},
"SERVICE_RECORD_CHANGE": {
		"TablePanel": [
			{ 'display': '요청등록', 'title': "#springMessage('process.resource.000001')", 'type': 'table', 'internal_id': 'requst_regist', 'formType': 'editor'}
                	,{ 'display': '요청부서결재', 'title': "#springMessage('process.resource.000002')", 'type': 'table', 'internal_id': 'req_cust_approval', 'formType': 'editor'}
                        ,{ 'display': 'SM기획결재', 'title': "#springMessage('process.resource.000003')", 'type': 'table', 'internal_id': 'sm_approval', 'formType': 'editor'}
                        ,{ 'display': '요청접수', 'title': "#springMessage('process.resource.000004')", 'type': 'table', 'internal_id': 'requst_rcept', 'formType': 'editor'}
                        ,{ 'display': '처리 및 완료', 'title': "#springMessage('process.resource.000005')", 'type': 'table', 'internal_id': 'proc_complete', 'formType': 'editor'}
                        ,{ 'display': '관리자확인', 'title': "#springMessage('process.resource.000006')", 'type': 'table', 'internal_id': 'manager_cnfirm', 'formType': 'editor'}
                        ,{ 'display': '임시TASK', 'title': "#springMessage('process.resource.000007')", 'type': 'table', 'internal_id': 'temp_link', 'formType': 'editor'}
		],
		"Grid": [],
		"AddGrid": [],
		"AddOperatorGrid": [],
               "MultiTaskGrid": []
	},
"SERVICE_RECORD_DELETE": {
		"TablePanel": [
			{ 'display': '요청등록', 'title': "#springMessage('process.resource.000001')", 'type': 'table', 'internal_id': 'requst_regist', 'formType': 'editor'}
                	,{ 'display': '요청부서결재', 'title': "#springMessage('process.resource.000002')", 'type': 'table', 'internal_id': 'req_cust_approval', 'formType': 'editor'}
                        ,{ 'display': 'SM기획결재', 'title': "#springMessage('process.resource.000003')", 'type': 'table', 'internal_id': 'sm_approval', 'formType': 'editor'}
                        ,{ 'display': '요청접수', 'title': "#springMessage('process.resource.000004')", 'type': 'table', 'internal_id': 'requst_rcept', 'formType': 'editor'}
                        ,{ 'display': '처리 및 완료', 'title': "#springMessage('process.resource.000005')", 'type': 'table', 'internal_id': 'proc_complete', 'formType': 'editor'}
                        ,{ 'display': '관리자확인', 'title': "#springMessage('process.resource.000006')", 'type': 'table', 'internal_id': 'manager_cnfirm', 'formType': 'editor'}
                        ,{ 'display': '임시TASK', 'title': "#springMessage('process.resource.000007')", 'type': 'table', 'internal_id': 'temp_link', 'formType': 'editor'}
		],
		"Grid": [],
		"AddGrid": [],
		"AddOperatorGrid": [],
               "MultiTaskGrid": []
	},
"CHANGE": {
		"TablePanel": [
			{ 'display': '변경등록', 'title': "변경등록", 'type': 'table', 'internal_id': 'requst_regist', 'formType': 'editor'}
                	,{ 'display': '변경계획수립', 'title': "변경계획수립", 'type': 'table', 'internal_id': 'change_plan', 'formType': 'editor'}
                        ,{ 'display': 'CAB소집', 'title': "CAB소집", 'type': 'table', 'internal_id': 'cab_noti', 'formType': 'editor'}
                        ,{ 'display': 'CAB소집결과작성', 'title': "CAB소집결과작성", 'type': 'table', 'internal_id': 'cab_result', 'formType': 'editor'}
                        ,{ 'display': 'CAB결과승인', 'title': "CAB결과승인", 'type': 'table', 'internal_id': 'cab_cnfirm', 'formType': 'editor'}
                        ,{ 'display': '변경계획승인', 'title': "변경계획승인", 'type': 'table', 'internal_id': 'change_plan_cnfirm', 'formType': 'editor'}
                        ,{ 'display': '승인자확인', 'title': "승인자확인", 'type': 'table', 'internal_id': 'approver_cnfirm', 'formType': 'editor'}
                        ,{ 'display': '변경수행결과', 'title': "변경수행결과", 'type': 'table', 'internal_id': 'change_result', 'formType': 'editor'}
                        ,{ 'display': '결과확인', 'title': "결과확인", 'type': 'table', 'internal_id': 'result_cnfirm', 'formType': 'editor'}
		],
		"Grid": [],
		"AddGrid": [],
		"AddOperatorGrid": [],
               "MultiTaskGrid": []
	},

}