[
	{ 'display': '요청', 'text': '요청', 'value': 'NRMLT_PROC', 'internal_id': 'NRMLT_PROC', 'action': 'NRMLT_PROC', 'actionType': 'submit', 'url': '/itg/nbpm/processRequest.do', 'ui':'correct' },
        { 'display': '처리', 'text': '처리', 'value': 'NRMLT_PROC', 'internal_id': 'NRMLT_PROC', 'action': 'NRMLT_PROC', 'actionType': 'submit', 'url': '/itg/nbpm/processRequest.do', 'ui':'correct' },
	{ 'display': '검토요청', 'text': '검토요청', 'value': 'NRMLT_PROC', 'internal_id': 'NRMLT_PROC', 'action': 'NRMLT_PROC', 'actionType': 'submit', 'url': '/itg/nbpm/processRequest.do', 'ui':'correct' },
	{ 'display': '등록', 'text': "#springMessage('process.resource.300001')", 'value': 'NRMLT_PROC', 'internal_id': 'NRMLT_PROC', 'action': 'NRMLT_PROC', 'actionType': 'submit', 'url': '/itg/nbpm/processRequest.do', 'ui':'correct' },
	{ 'display': '복원요청', 'text': '복원요청', 'value': 'RECOVRY_PROC', 'internal_id': 'RECOVRY_PROC', 'action': 'RECOVRY_PROC', 'actionType': 'submit', 'url': '/itg/nbpm/processRequest.do', 'ui':'correct' },
	{ 'display': '복원완료', 'text': '복원완료', 'value': 'NRMLT_PROC', 'internal_id': 'NRMLT_PROC', 'action': 'NRMLT_PROC', 'actionType': 'submit', 'url': '/itg/nbpm/processRequest.do', 'ui':'correct' },
        { 'display': '결과확인', 'text': '결과확인', 'value': 'NRMLT_PROC', 'internal_id': 'NRMLT_PROC', 'action': 'NRMLT_PROC', 'actionType': 'submit', 'url': '/itg/nbpm/processRequest.do', 'ui':'correct' },
        { 'display': '1선 종료', 'text': '1선 종료', 'value': 'FIRST_PROC', 'internal_id': 'FIRST_PROC', 'action': 'FIRST_PROC', 'actionType': 'submit', 'url': '/itg/nbpm/processRequest.do', 'ui':'correct' },
	{ 'display': '서비스데스크접수', 'text': '접수', 'value': 'accept', 'internal_id': 'sdesk_accept', 'action': 'accept', 'actionType': 'submit', 'url': '/itg/nbpm/acceptRequest.do', 'ui':'correct' },
	{ 'display': '반려', 'text': '반려', 'value': 'RETURN_PROC', 'internal_id': 'RETURN_PROC', 'action': 'RETURN_PROC', 'actionType': 'submit', 'url': '/itg/nbpm/processRequest.do', 'ui':'default' },
	{ 'display': '접수취소', 'text': '접수취소', 'value': 'RETURN_PROC', 'internal_id': 'RETURN_PROC', 'action': 'RETURN_PROC', 'actionType': 'submit', 'url': '/itg/nbpm/processRequest.do', 'ui':'default' },
        { 'display': '작업반려', 'text': '작업반려', 'value': 'RETURN_PROC', 'internal_id': 'RETURN_PROC', 'action': 'RETURN_PROC', 'actionType': 'submit', 'url': '/itg/nbpm/processRequest.do', 'ui':'default' },
        { 'display': '재작업 요청', 'text': '재작업 요청', 'value': 'RETURN_PROC', 'internal_id': 'RETURN_PROC', 'action': 'RETURN_PROC', 'actionType': 'submit', 'url': '/itg/nbpm/processRequest.do', 'ui':'default' },
	{ 'display': '취소', 'text': '취소', 'value': 'RETURN_PROC', 'internal_id': 'RETURN_PROC', 'action': 'RETURN_PROC', 'actionType': 'submit', 'url': '/itg/nbpm/processRequest.do', 'ui':'default' },
	{ 'display': '반려종료', 'text': '반려종료', 'value': 'RETURN_END_PROC', 'internal_id': 'RETURN_END_PROC', 'action': 'RETURN_END_PROC', 'actionType': 'submit', 'url': '/itg/nbpm/processRequest.do', 'ui':'default' },
	{ 'display': '1선처리', 'text': '1선처리', 'value': 'FIRST_PROC', 'internal_id': 'FIRST_PROC', 'action': 'FIRST_PROC', 'actionType': 'submit', 'url': '/itg/nbpm/processRequest.do', 'ui':'correct' },
	{ 'display': '이관', 'text': '이관', 'value': 'TRNSFER_PROC', 'internal_id': 'TRNSFER_PROC', 'action': 'TRNSFER_PROC', 'actionType': 'submit', 'url': '/itg/nbpm/processRequest.do', 'ui':'correct' },
	{ 'display': '연관장애', 'text': '연관장애', 'value': 'relinc', 'internal_id': 'relinc', 'action': 'relinc', 'actionType': 'submit', 'url': '/itg/nbpm/processRelInc.do', 'ui':'correct' },
	{ 'display': '상담원 재지정', 'text': '상담원 재지정', 'value': 'REAPPN_PROC', 'internal_id': 'REAPPN_PROC', 'action': 'REAPPN_PROC', 'actionType': 'submit', 'url': '/itg/nbpm/processRequest.do', 'ui':'default' },
	{ 'display': '담당자 재지정', 'text': '담당자 재지정', 'value': 'REAPPN_PROC', 'internal_id': 'REAPPN_PROC', 'action': 'REAPPN_PROC', 'actionType': 'submit', 'url': '/itg/nbpm/processRequest.do', 'ui':'default' },
	{ 'display': '관리자재지정', 'text': '관리자재지정', 'value': 'REAPPN_PROC', 'internal_id': 'REAPPN_PROC', 'action': 'REAPPN_PROC', 'actionType': 'submit', 'url': '/itg/nbpm/processRequest.do', 'ui':'default' },
	{ 'display': '개발자재지정', 'text': '개발자 재지정', 'value': 'REAPPN_PROC', 'internal_id': 'REAPPN_PROC', 'action': 'REAPPN_PROC', 'actionType': 'submit', 'url': '/itg/nbpm/processRequest.do', 'ui':'default' },
	{ 'display': '승인', 'text': '승인', 'value': 'NRMLT_PROC', 'internal_id': 'NRMLT_PROC', 'action': 'NRMLT_PROC', 'actionType': 'submit', 'url': '/itg/nbpm/processRequest.do', 'ui':'correct' },
	{ 'display': '검토승인', 'text': '검토승인', 'value': 'NRMLT_PROC', 'internal_id': 'NRMLT_PROC', 'action': 'NRMLT_PROC', 'actionType': 'submit', 'url': '/itg/nbpm/processRequest.do', 'ui':'correct' },
        { 'display': '작업승인', 'text': '작업승인', 'value': 'NRMLT_PROC', 'internal_id': 'NRMLT_PROC', 'action': 'NRMLT_PROC', 'actionType': 'submit', 'url': '/itg/nbpm/processRequest.do', 'ui':'correct' },
	{ 'display': '처리완료', 'text': '처리완료', 'value': 'NRMLT_PROC', 'internal_id': 'NRMLT_PROC', 'action': 'NRMLT_PROC', 'actionType': 'submit', 'url': '/itg/nbpm/processRequest.do', 'ui':'correct' },
	{ 'display': '확인', 'text': '확인', 'value': 'NRMLT_PROC', 'internal_id': 'NRMLT_PROC', 'action': 'NRMLT_PROC', 'actionType': 'submit', 'url': '/itg/nbpm/processRequest.do', 'ui':'correct' }, 
	{ 'display': '임시등록', 'text': "#springMessage('process.resource.300002')", 'value': 'tempRegister', 'internal_id': 'tempRegister', 'action': 'tempRegister', 'actionType': 'submit', 'url': '/itg/nbpm/registerTemporarily.do', 'ui':'default' },
	{ 'display': '임시저장', 'text': '임시저장', 'value': 'tempSave', 'internal_id': 'tempSave', 'action': 'tempSave', 'actionType': 'submit', 'url': '/itg/nbpm/processTemporarily.do', 'ui':'default' },
	{ 'display': '수정', 'text': '수정', 'value': 'update', 'internal_id': 'update', 'action': 'update', 'actionType': 'submit', 'callbackSub': 'updateSrData(paramMap);', 'ui':'correct' },
	{ 'display': '삭제', 'text': '삭제', 'value': 'delete', 'internal_id': 'delete', 'action': 'delete', 'actionType': 'direct', 'actionScript': 'deleteSrData(paramMap);', 'ui':'default' },
        { 'display': '접수', 'text': '접수', 'value': 'NRMLT_PROC', 'internal_id': 'NRMLT_PROC', 'action': 'NRMLT_PROC', 'actionType': 'submit', 'url': '/itg/nbpm/processRequest.do', 'ui':'correct' },
        { 'display': 'eCams 연계', 'text': 'eCams 연계', 'value': 'ECAMS_SR', 'internal_id': 'ECAMS_SR', 'action': 'ECAMS_SR', 'actionType': 'direct', 'url': '/itg/customize/ecamsSrContact.do', 'ui':'default' },
{ 'display': '배포', 'text': '배포', 'value': 'REL_PROC', 'internal_id': 'REL_PROC', 'action': 'REL_PROC', 'actionType': 'submit', 'url': '/itg/nbpm/processRequest.do', 'ui':'default' },
{ 'display': '배포복원', 'text': '배포복원', 'value': 'REL_RECOVRY', 'internal_id': 'REL_RECOVRY', 'action': 'REL_RECOVRY', 'actionType': 'submit', 'url': '/itg/nbpm/processRequest.do', 'ui':'default' },
{ 'display': '릴리스작업 복원', 'text': '릴리스작업 복원', 'value': 'REL_PROC_RECOVRY', 'internal_id': 'REL_PROC_RECOVRY', 'action': 'REL_PROC_RECOVRY', 'actionType': 'submit', 'url': '/itg/nbpm/processRequest.do', 'ui':'default' }
]