/*ENTITY 정보 뷰*/
CREATE OR REPLACE VIEW V_ITAM_ENTITY AS 
SELECT 
		/* VIEW TABLE 생성 스크립트는 반드시 프로젝트 내에 저장 : /itg_project-NKIA-BASE-8.1/deploy/DB_View/ */
		/* 수정시 V_ITAM_ENTITY_ATTR 도 함께 수정 필요*/
		CLS.CLASS_KIND, CLS.CLASS_TYPE, CLS.CLASS_NM_PATH, CLS.CLASS_ID, CLS.CLASS_NM, CLS.DISPLAY_NO_PATH
        , ET.*
    FROM 
        (
            SELECT CONNECT_BY_ROOT UP_ENTITY_ID AS ENTITY_CLASS_ID, SUBSTR(SYS_CONNECT_BY_PATH(ENTITY_NM,'>'),2) AS ENTITY_NM_PATH
                    , SUBSTR(SYS_CONNECT_BY_PATH(TRIM(TO_CHAR(SORT_ORDER,'00000')),'-'),2) AS SORT_ORDER_PATH
                    , IAE.* 
                FROM ( SELECT * FROM AM_ENTITY WHERE USE_YN='Y' ) IAE
                WHERE 1=1 START WITH SUBSTR(UP_ENTITY_ID,1,2) NOT IN ( 'ET' ) 
                CONNECT BY PRIOR ENTITY_ID = UP_ENTITY_ID
        ) ET 
        LEFT OUTER JOIN (
            SELECT 'ASSET' AS CLASS_KIND, SUBSTR(SYS_CONNECT_BY_PATH(CLASS_NM,'>'),2) AS CLASS_NM_PATH
                    , SUBSTR(SYS_CONNECT_BY_PATH(TRIM(TO_CHAR(DISPLAY_NO,'00000')),'-'),2) AS DISPLAY_NO_PATH
                    , CLASS_TYPE, CLASS_ID, CLASS_NM, DISPLAY_NO
                FROM ( SELECT * FROM AM_CLASS WHERE USE_YN='Y' ) AC
                WHERE 1=1 START WITH UP_CLASS_ID='0' CONNECT BY PRIOR CLASS_ID = UP_CLASS_ID
            UNION ALL
            SELECT 'CONF' AS CLASS_KIND, CLASS_NM_PATH, DISPLAY_NO_PATH, CODE_ID AS CLASS_TYPE, CODE_ID AS CLASS_ID, CODE_NM AS CLASS_NM, DISPLAY_NO 
                FROM 
                    (
                        SELECT 'CONF' AS CLASS_KIND, SUBSTR(SYS_CONNECT_BY_PATH(CODE_NM,'>'),2) AS CLASS_NM_PATH
                                , SUBSTR(SYS_CONNECT_BY_PATH(TRIM(TO_CHAR(DISPLAY_NO,'00000')),'-'),2) AS DISPLAY_NO_PATH
                                , SC.*
                                , CONNECT_BY_ISLEAF AS ISLEAF
                            FROM SYS_CODE SC 
                            WHERE CODE_GRP_ID = 'CONF_TYPE' AND USE_YN='Y' 
                            START WITH UP_CODE_ID='CONF_TYPE' CONNECT BY PRIOR CODE_ID = UP_CODE_ID
                    ) 
                WHERE ISLEAF = 1
        ) CLS ON ET.ENTITY_CLASS_ID = CLS.CLASS_ID
    WHERE 1=1
        AND ( CLS.CLASS_ID IS NOT NULL )
    --ORDER BY CLS.DISPLAY_NO_PATH, ET.SORT_ORDER_PATH
;
/


/*ENTITY 컬럼 정보 뷰*/
CREATE OR REPLACE VIEW V_ITAM_ENTITY_ATTR AS 
SELECT 
        /* VIEW TABLE 생성 스크립트는 반드시 프로젝트 내에 저장 : /itg_project-NKIA-BASE-8.1/deploy/DB_View/ */
        /* [ET] 서브테이블 수정시 V_ITAM_ENTITY 도 수정 필요*/
        
        ROW_NUMBER() OVER ( PARTITION BY ET.CLASS_TYPE ORDER BY ET.DISPLAY_NO_PATH, ET.SORT_ORDER_PATH, AEAM.SORT ) AS VR
        , ET.CLASS_KIND, ET.CLASS_TYPE, ET.CLASS_ID, ET.CLASS_NM, ET.CLASS_NM_PATH, ET.DISPLAY_NO_PATH
        , ET.ENTITY_ID, ET.ENTITY_NM, ET.ENTITY_NM_PATH, ET.SORT_ORDER_PATH
        , AEAM.GEN_TABLE_NM
        , AEAM.SORT AS COL_SORT
        , AA.COL_ID
        , NVL(AEAM.OV_COL_NAME, AA.COL_NAME ) AS COL_NAME
        , AA.COL_TYPE
        , AA.COL_LEN
        , AA.HTML_TYPE
        , AA.SYS_CODE
        , AA.REQ_URL
        , AA.POPUP_CODE
        , NVL(AEAM.OV_NOT_NULL, AA.NOT_NULL ) AS NOT_NULL
        , NVL(AEAM.OV_DATE_TYPE, AA.DATE_TYPE ) AS DATE_TYPE
        , NVL(AEAM.OV_DISPLAY_TYPE, AA.DISPLAY_TYPE ) AS DISPLAY_TYPE
        , AA.ALL_EDIT_YN
        , AEAM.GEN_TABLE_NM || '.' || AA.COL_ID AS MAIN_FIELD
        , CASE WHEN AA.HTML_TYPE IN ('CHECK','RADIO','SELECT') AND AA.SYS_CODE IS NOT NULL THEN 'FC_GET_CODE_NM('''|| AA.SYS_CODE ||''', ' || AEAM.GEN_TABLE_NM || '.' || AA.COL_ID ||' ) AS ' || AA.COL_ID || '_NM'
                WHEN AA.HTML_TYPE LIKE 'POPUP%' THEN REPLACE(REPLACE( (SELECT POPUP_NM_FN FROM AM_POPUP_MNG WHERE POPUP_CODE = AA.POPUP_CODE ) , '{0}' , AEAM.GEN_TABLE_NM || '.' || AA.COL_ID ),'^','''') || ' AS ' || AA.COL_ID || '_NM'
                WHEN AA.HTML_TYPE IN ('DATE') AND AA.DATE_TYPE IS NOT NULL THEN  'TO_CHAR(' || AEAM.GEN_TABLE_NM || '.' || AA.COL_ID || ' , ''' || AA.DATE_TYPE || ''') AS ' || AA.COL_ID || '_NM'
            ELSE '' END AS SUB_FIELD
    FROM 
        AM_ENTITY_ATTR_MAPPING AEAM
        INNER JOIN AM_ATTRIBUTE AA ON AEAM.COL_ID = AA.COL_ID
        INNER JOIN (
        
        /*VIEW TABLE -- V_ITAM_ENTITY -- START ####################################################################################################################  */
        
SELECT 
		/* VIEW TABLE 생성 스크립트는 반드시 프로젝트 내에 저장 : /itg_project-NKIA-BASE-8.1/deploy/DB_View/ */
		/* 수정시 V_ITAM_ENTITY_ATTR 도 함께 수정 필요*/
		CLS.CLASS_KIND, CLS.CLASS_TYPE, CLS.CLASS_NM_PATH, CLS.CLASS_ID, CLS.CLASS_NM, CLS.DISPLAY_NO_PATH
        , ET.*
    FROM 
        (
            SELECT CONNECT_BY_ROOT UP_ENTITY_ID AS ENTITY_CLASS_ID, SUBSTR(SYS_CONNECT_BY_PATH(ENTITY_NM,'>'),2) AS ENTITY_NM_PATH
                    , SUBSTR(SYS_CONNECT_BY_PATH(TRIM(TO_CHAR(SORT_ORDER,'00000')),'-'),2) AS SORT_ORDER_PATH
                    , IAE.* 
                FROM ( SELECT * FROM AM_ENTITY WHERE USE_YN='Y' ) IAE
                WHERE 1=1 START WITH SUBSTR(UP_ENTITY_ID,1,2) NOT IN ( 'ET' ) 
                CONNECT BY PRIOR ENTITY_ID = UP_ENTITY_ID
        ) ET 
        LEFT OUTER JOIN (
            SELECT 'ASSET' AS CLASS_KIND, SUBSTR(SYS_CONNECT_BY_PATH(CLASS_NM,'>'),2) AS CLASS_NM_PATH
                    , SUBSTR(SYS_CONNECT_BY_PATH(TRIM(TO_CHAR(DISPLAY_NO,'00000')),'-'),2) AS DISPLAY_NO_PATH
                    , CLASS_TYPE, CLASS_ID, CLASS_NM, DISPLAY_NO
                FROM ( SELECT * FROM AM_CLASS WHERE USE_YN='Y' ) AC
                WHERE 1=1 START WITH UP_CLASS_ID='0' CONNECT BY PRIOR CLASS_ID = UP_CLASS_ID
            UNION ALL
            SELECT 'CONF' AS CLASS_KIND, CLASS_NM_PATH, DISPLAY_NO_PATH, CODE_ID AS CLASS_TYPE, CODE_ID AS CLASS_ID, CODE_NM AS CLASS_NM, DISPLAY_NO 
                FROM 
                    (
                        SELECT 'CONF' AS CLASS_KIND, SUBSTR(SYS_CONNECT_BY_PATH(CODE_NM,'>'),2) AS CLASS_NM_PATH
                                , SUBSTR(SYS_CONNECT_BY_PATH(TRIM(TO_CHAR(DISPLAY_NO,'00000')),'-'),2) AS DISPLAY_NO_PATH
                                , SC.*
                                , CONNECT_BY_ISLEAF AS ISLEAF
                            FROM SYS_CODE SC 
                            WHERE CODE_GRP_ID = 'CONF_TYPE' AND USE_YN='Y' 
                            START WITH UP_CODE_ID='CONF_TYPE' CONNECT BY PRIOR CODE_ID = UP_CODE_ID
                    ) 
                WHERE ISLEAF = 1
        ) CLS ON ET.ENTITY_CLASS_ID = CLS.CLASS_ID
    WHERE 1=1
        AND ( CLS.CLASS_ID IS NOT NULL )        
        
        /*VIEW TABLE -- V_ITAM_ENTITY -- END #################################################################################################################### */
        
        ) ET ON AEAM.ENTITY_ID = ET.ENTITY_ID
    --ORDER BY ET.DISPLAY_NO_PATH, ET.SORT_ORDER_PATH, COL_SORT
;
/



/* ############################################################################################################################# */
/* 자산구성 뷰테이블 생성 수동용 */


/*
		WITH 
		BASE AS (
			SELECT IEC.* 
				FROM V_ITAM_ENTITY_ATTR IEC
				WHERE 1=1
					AND GEN_TABLE_NM NOT IN ('AM_DUMMY_TABLE')
					AND IEC.CLASS_KIND='ASSET' AND IEC.CLASS_TYPE='SV' -- OOOOOOOOOOOOOOOOOOOOOOOOOOOOOOOOOOOO 자산분류체계/구성용도 입력
		)
		
		SELECT '--CREATE OR REPLACE VIEW' || ( SELECT CLASS_KIND FROM BASE WHERE ROWNUM=1 ) || '_STATISTICS_' || (SELECT CLASS_TYPE FROM BASE WHERE ROWNUM=1 ) || ' AS '  AS QRYSTR FROM DUAL
		UNION ALL SELECT 'SELECT ' AS QRYSTR FROM DUAL
		UNION ALL SELECT ' '''  || ( SELECT CLASS_KIND FROM BASE WHERE ROWNUM=1 ) || '_STATISTICS_' || (SELECT CLASS_TYPE FROM BASE WHERE ROWNUM=1 ) || ''' AS VIEWTABLENAME ' AS QRYSTR FROM DUAL
		UNION ALL
			SELECT * FROM 
				(
					SELECT '		, ' || MAIN_FIELD || DECODE(SUB_FIELD,NULL,NULL, '			, ' ) || SUB_FIELD AS QRYSTR
						FROM BASE B
						WHERE 1=1
						GROUP BY CLASS_KIND, CLASS_TYPE, GEN_TABLE_NM, COL_ID, COL_NAME, MAIN_FIELD, SUB_FIELD
						ORDER BY MIN(VR)
				)
		UNION ALL SELECT '	FROM ' AS QRYSTR FROM DUAL
		UNION ALL 
			SELECT '		AM_ASSET ' AS QRYSTR 
				FROM DUAL 
				WHERE 1 = NVL( ( SELECT 1 FROM BASE WHERE GEN_TABLE_NM='AM_ASSET' GROUP BY GEN_TABLE_NM ), 0 )
		UNION ALL 
			SELECT  '		' || DECODE ( NVL( ( SELECT 1 FROM BASE WHERE GEN_TABLE_NM='AM_ASSET' GROUP BY GEN_TABLE_NM ), 0 ) , 0 , '' , 'LEFT OUTER JOIN ' )
					|| 'AM_CONF '
					|| DECODE ( NVL( ( SELECT 1 FROM BASE WHERE GEN_TABLE_NM='AM_ASSET' GROUP BY GEN_TABLE_NM ), 0 ) , 0 , '' , ' ON AM_ASSET.ASSET_ID = AM_CONF.CONF_ID ' )
					AS QRYSTR 
				FROM DUAL WHERE 1 = NVL( ( SELECT 1 FROM BASE WHERE GEN_TABLE_NM='AM_CONF' GROUP BY GEN_TABLE_NM ), 0 )
		UNION ALL
			SELECT '		LEFT OUTER JOIN ' || GEN_TABLE_NM || ' ON AM_CONF.CONF_ID = ' || GEN_TABLE_NM || '.CONF_ID'  AS QRYSTR 
			FROM ( SELECT GEN_TABLE_NM FROM BASE WHERE GEN_TABLE_NM NOT IN ('AM_ASSET','AM_CONF') GROUP BY GEN_TABLE_NM ) 

*/
/* 자산구성 뷰테이블 생성 */
/* ############################################################################################################################# */

