<?xml version="1.0" encoding="UTF-8"?>
<svg width="16px" height="16px" viewBox="0 0 16 16" version="1.1" xmlns="http://www.w3.org/2000/svg" xmlns:xlink="http://www.w3.org/1999/xlink">
    <!-- Generator: Sketch 46.2 (44496) - http://www.bohemiancoding.com/sketch -->
    <title>Calendar Icon</title>
    <desc>Created with Sketch.</desc>
    <defs></defs>
    <g id="Page-1" stroke="none" stroke-width="1" fill="none" fill-rule="evenodd">
        <g id="Hide-right-panel" transform="translate(-532.000000, -22.000000)" fill-rule="nonzero" fill="#666666">
            <g id="Filters-Panel">
                <g id="Filter-Item" transform="translate(322.000000, 13.000000)">
                    <g id="Input-Datepicker" transform="translate(41.000000, 0.000000)">
                        <g id="Calendar-Icon" transform="translate(169.000000, 9.000000)">
                            <path d="M4,3 L4.04162092,3 C4.45586928,3 4.79163399,2.66426144 4.79163399,2.24998693 L4.79163399,2 L4.79163399,0.750013072 C4.79163399,0.335738562 4.45586928,0 4.04162092,0 L4,0 C3.58575163,0 3.24998693,0.335738562 3.24998693,0.750013072 L3.24998693,2 L3.24998693,2.24998693 C3.24998693,2.66426144 3.58575163,3 4,3 Z" id="Shape"></path>
                            <path d="M11.7500131,3 L11.791634,3 C12.2059085,3 12.5416471,2.66426144 12.5416471,2.24998693 L12.5416471,2 L12.5416471,0.750013072 C12.5416209,0.335738562 12.2058824,0 11.7916078,0 L11.7499869,0 C11.3357386,0 10.9999739,0.335738562 10.9999739,0.750013072 L10.9999739,2 L10.9999739,2.24998693 C11,2.66426144 11.3357647,3 11.7500131,3 Z" id="Shape"></path>
                            <path d="M14,2 L13.2916078,2 L13.2916078,2.24998693 C13.2916078,3.07712418 12.6187451,3.74998693 11.7916078,3.74998693 L11.7499869,3.74998693 C10.9228497,3.74998693 10.2499869,3.07712418 10.2499869,2.24998693 L10.2499869,2 L5.54162092,2 L5.54162092,2.24998693 C5.54162092,3.07712418 4.86873203,3.74998693 4.04162092,3.74998693 L4,3.74998693 C3.17286275,3.74998693 2.5,3.07712418 2.5,2.24998693 L2.5,2 L2,2 C0.895503268,2 0,2.89550327 0,4 L0,14 C0,15.1044967 0.895503268,16 2,16 L14,16 C15.1044967,16 16,15.1044967 16,14 L16,4 C16,2.89550327 15.1044967,2 14,2 Z M15,14 C15,14.5517386 14.5517386,15 14,15 L2,15 C1.44875817,15 1,14.5517386 1,14 L1,6 L15,6 L15,14 Z" id="Shape"></path>
                            <circle id="Oval" cx="4" cy="8.5" r="1.2292549"></circle>
                            <circle id="Oval" cx="8" cy="8.5" r="1.2292549"></circle>
                            <circle id="Oval" cx="12" cy="8.5" r="1.2292549"></circle>
                            <circle id="Oval" cx="4" cy="12.5" r="1.2292549"></circle>
                            <circle id="Oval" cx="8" cy="12.5" r="1.2292549"></circle>
                            <circle id="Oval" cx="12" cy="12.5" r="1.2292549"></circle>
                        </g>
                    </g>
                </g>
            </g>
        </g>
    </g>
</svg>