<?xml version="1.0" encoding="UTF-8"?>
<svg width="15px" height="15px" viewBox="0 0 15 15" version="1.1" xmlns="http://www.w3.org/2000/svg" xmlns:xlink="http://www.w3.org/1999/xlink">
    <!-- Generator: Sketch 46.2 (44496) - http://www.bohemiancoding.com/sketch -->
    <title>Diagram Icon</title>
    <desc>Created with Sketch.</desc>
    <defs></defs>
    <g id="Page-1" stroke="none" stroke-width="1" fill="none" fill-rule="evenodd">
        <g id="Pivot-Chart-Modal" transform="translate(-828.000000, -183.000000)" fill="#729FBD">
            <g id="Modal" transform="translate(238.000000, 94.000000)">
                <g id="Columns-Box" transform="translate(575.000000, 76.000000)">
                    <g id="Columns-Box-Header">
                        <g id="Title" transform="translate(15.000000, 6.000000)">
                            <g id="Diagram-Icon" transform="translate(0.000000, 7.000000)">
                                <path d="M13.486494,11.1519141 L13.486494,9.61957031 C13.486494,8.81041992 12.8151394,8.15217773 11.9898705,8.15217773 L7.99888446,8.15217773 L7.99888446,6.80876953 C9.68844622,6.57014648 10.9921315,5.14538086 10.9921315,3.42392578 C10.9921315,1.53600586 9.42564741,0 7.5,0 C5.57435259,0 4.00786853,1.53600586 4.00786853,3.42392578 C4.00786853,5.14538086 5.31155378,6.57014648 7.00111554,6.80876953 L7.00111554,8.15217773 L3.01012948,8.15217773 C2.18486056,8.15217773 1.51350598,8.81041992 1.51350598,9.61957031 L1.51350598,11.1519141 C0.65435259,11.37 0.0168824701,12.1338281 0.0168824701,13.0434668 C0.0168824701,14.1223828 0.912011952,15 2.01239044,15 C3.11276892,15 4.00789841,14.1223828 4.00789841,13.0434668 C4.00789841,12.1338281 3.37042829,11.37 2.5112749,11.1519141 L2.5112749,9.61957031 C2.5112749,9.34986328 2.73507968,9.13042969 3.01015936,9.13042969 L7.00114542,9.13042969 L7.00114542,11.1513281 C6.14184263,11.3693555 5.50452191,12.1337402 5.50452191,13.0434961 C5.50449203,14.1223828 6.39962151,15 7.5,15 C8.60037849,15 9.49550797,14.1223828 9.49550797,13.0434668 C9.49550797,12.1337109 8.85818725,11.3693555 7.99888446,11.1512988 L7.99888446,9.13040039 L11.9898705,9.13040039 C12.2649502,9.13040039 12.488755,9.34983398 12.488755,9.61954102 L12.488755,11.1518848 C11.6296016,11.37 10.9921315,12.1337988 10.9921315,13.0434375 C10.9921315,14.1223242 11.8872311,14.9999707 12.9876394,14.9999707 C14.0880478,14.9999707 14.9831474,14.1223535 14.9831474,13.0434375 C14.9831175,12.1338281 14.3456474,11.37 13.486494,11.1519141 Z" id="Shape" fill-rule="nonzero"></path>
                                <path d="M11,3.00275649 C11,1.38079997 11,0.496539672 11,0.349975586 C11,0.130004883 10.9059295,0 10.6500244,0 C10.3941193,0 4.5892334,3.78863607e-14 4.34997559,0 C4.11071777,-3.82471832e-14 4,0.125915527 4,0.349975586 C4,0.499264223 4,1.38352452 4,3.00275649 C4,5.17826911 4,6.34067994 4,6.48999023 C4,6.71405029 4.11071777,6.83999634 4.34997559,6.83999634 C4.5892334,6.83999634 10.3941193,6.83999634 10.6500244,6.83999634 C10.9059295,6.83999634 11,6.70996094 11,6.48999023 C11,6.34340495 11,5.18099412 11,3.00275774 Z" id="Combined-Shape"></path>
                                <path d="M3.65002441,11 C3.90592948,11 4,11.1300049 4,11.3499756 C4,11.4966227 4,12.3799642 4,14 L0,14 C2.96059473e-16,12.3826904 4.4408921e-16,11.499349 4.4408921e-16,11.3499756 C4.4408921e-16,11.1259155 0.110717773,11 0.349975586,11 C0.589233398,11 3.39411935,11 3.65002441,11 Z M3.65002441,15 C3.39411935,15 0.589233398,15 0.349975586,15 C0.110717773,15 0,14.874054 0,14.6499939 C0,14.5006205 0,14.2839559 0,14 L4,14 C4,14.2866821 4,14.5033468 4,14.6499939 C4,14.8699646 3.90592948,15 3.65002441,15 Z" id="Combined-Shape"></path>
                                <path d="M14.6500244,11 C14.9059295,11 15,11.1300049 15,11.3499756 C15,11.4966227 15,12.3799642 15,14 L11,14 C11,12.3826904 11,11.499349 11,11.3499756 C11,11.1259155 11.1107178,11 11.3499756,11 C11.5892334,11 14.3941193,11 14.6500244,11 Z M14.6500244,15 C14.3941193,15 11.5892334,15 11.3499756,15 C11.1107178,15 11,14.874054 11,14.6499939 C11,14.5006205 11,14.2839559 11,14 L15,14 C15,14.2866821 15,14.5033468 15,14.6499939 C15,14.8699646 14.9059295,15 14.6500244,15 Z" id="Combined-Shape"></path>
                                <path d="M9.15002441,11 C9.40592948,11 9.5,11.1300049 9.5,11.3499756 C9.5,11.4966227 9.5,12.3799642 9.5,14 L5.5,14 C5.5,12.3826904 5.5,11.499349 5.5,11.3499756 C5.5,11.1259155 5.61071777,11 5.84997559,11 C6.0892334,11 8.89411935,11 9.15002441,11 Z M9.15002441,15 C8.89411935,15 6.0892334,15 5.84997559,15 C5.61071777,15 5.5,14.874054 5.5,14.6499939 C5.5,14.5006205 5.5,14.2839559 5.5,14 L9.5,14 C9.5,14.2866821 9.5,14.5033468 9.5,14.6499939 C9.5,14.8699646 9.40592948,15 9.15002441,15 Z" id="Combined-Shape"></path>
                            </g>
                        </g>
                    </g>
                </g>
            </g>
        </g>
    </g>
</svg>