<?xml version="1.0" encoding="UTF-8"?>
<svg width="13px" height="15px" viewBox="0 0 13 15" version="1.1" xmlns="http://www.w3.org/2000/svg" xmlns:xlink="http://www.w3.org/1999/xlink">
    <!-- Generator: Sketch 46.2 (44496) - http://www.bohemiancoding.com/sketch -->
    <title>the-sum-of</title>
    <desc>Created with Sketch.</desc>
    <defs></defs>
    <g id="Page-1" stroke="none" stroke-width="1" fill="none" fill-rule="evenodd">
        <g id="Modal-Config" transform="translate(-829.000000, -434.000000)" fill-rule="nonzero" fill="#729FBD">
            <g id="Modal" transform="translate(238.000000, 94.000000)">
                <g id="Values-Box" transform="translate(575.000000, 326.000000)">
                    <g id="Group-10" transform="translate(16.000000, 6.000000)">
                        <g id="the-sum-of" transform="translate(0.000000, 8.000000)">
                            <path d="M12.0688889,3.62169643 C12.5815,3.62169643 12.9970556,3.22098214 12.9970556,2.72667857 L12.9970556,0.93675 C12.9970556,0.701089286 12.8980556,0.470517857 12.7252222,0.303857143 C12.5523889,0.137196429 12.3133333,0.0417321429 12.0688889,0.0417321429 L0.931166667,0.0417321429 C0.573111111,0.0417321429 0.245777778,0.241446429 0.0924444444,0.553446429 C-0.0608888889,0.8655 -0.0139444444,1.23621429 0.212833333,1.50348214 L5.30083333,7.5 L0.212888889,13.496625 C-0.0138888889,13.7637857 -0.0608333333,14.1346071 0.0925,14.4466607 C0.245833333,14.7587143 0.573166667,14.958375 0.931222222,14.958375 L12.0688889,14.958375 C12.3132778,14.958375 12.5523333,14.8629107 12.7252222,14.69625 C12.8981111,14.5295893 12.9970556,14.2990714 12.9970556,14.0633571 L12.9970556,12.273375 C12.9970556,11.7790714 12.5815,11.3783571 12.0688889,11.3783571 C11.5562778,11.3783571 11.1407222,11.7790714 11.1407222,12.273375 L11.1407222,13.1683929 L2.88977778,13.1683929 L7.21838889,8.06683929 C7.49877778,7.73641071 7.49877778,7.26375 7.21838889,6.933375 L2.88977778,1.83182143 L11.1407222,1.83182143 L11.1407222,2.72678571 C11.1407778,3.22092857 11.5563333,3.62169643 12.0688889,3.62169643 Z" id="Shape"></path>
                        </g>
                    </g>
                </g>
            </g>
        </g>
    </g>
</svg>