<?xml version="1.0" encoding="UTF-8"?>
<svg width="15px" height="15px" viewBox="0 0 15 15" version="1.1" xmlns="http://www.w3.org/2000/svg" xmlns:xlink="http://www.w3.org/1999/xlink">
    <!-- Generator: Sketch 46.2 (44496) - http://www.bohemiancoding.com/sketch -->
    <title>funnel</title>
    <desc>Created with Sketch.</desc>
    <defs></defs>
    <g id="Page-1" stroke="none" stroke-width="1" fill="none" fill-rule="evenodd">
        <g id="Modal-Config" transform="translate(-518.000000, -184.000000)" fill-rule="nonzero" fill="#729FBD">
            <g id="Modal" transform="translate(238.000000, 94.000000)">
                <g id="Filters-Box" transform="translate(265.000000, 76.000000)">
                    <g id="Filters-Box-Header">
                        <g id="Title" transform="translate(15.000000, 6.000000)">
                            <g id="funnel" transform="translate(0.000000, 8.000000)">
                                <path d="M5.53311044,14.3766886 L5.53311044,9.04053695 L0.107127591,0.973549187 C-0.11321689,0.719446726 -0.01834635,0.021430328 0.624325053,0 L14.3713724,0 C14.7447339,0 15.2190866,0.440852462 14.8885699,0.973549187 L9.46258702,9.04053695 L9.46258702,12.3530534 C9.46258702,12.5489878 9.37077682,12.7326763 9.21469947,12.8520739 L6.53384162,14.8757091 C6.38082462,15.0471517 5.61267928,15.1604263 5.53311044,14.3766886 L5.53311044,14.3766886 Z M1.79949562,1.24908198 L6.6776776,8.50171727 C6.74806542,8.60580744 6.7847895,8.72520498 6.7847895,8.85072547 L6.7847895,13.1245452 L8.21702863,12.0438443 L8.21702863,8.85072547 C8.21702863,8.72520498 8.25375271,8.60580744 8.32414053,8.50171727 L13.1962018,1.24908198 L1.79949562,1.24908198 Z" id="Shape"></path>
                            </g>
                        </g>
                    </g>
                </g>
            </g>
        </g>
    </g>
</svg>