<?xml version="1.0" encoding="UTF-8"?>
<svg width="20px" height="20px" viewBox="0 0 20 20" version="1.1" xmlns="http://www.w3.org/2000/svg" xmlns:xlink="http://www.w3.org/1999/xlink">
    <!-- Generator: Sketch 46.2 (44496) - http://www.bohemiancoding.com/sketch -->
    <title>Settings Icon</title>
    <desc>Created with Sketch.</desc>
    <defs></defs>
    <g id="Symbols" stroke="none" stroke-width="1" fill="none" fill-rule="evenodd">
        <g id="Click-to-configure" transform="translate(-71.000000, -42.000000)" fill-rule="nonzero" fill="#709FBE">
            <g id="Settings-Icon" transform="translate(71.000000, 42.000000)">
                <path d="M19.1527495,7.43584521 L17.9674134,7.43584521 C17.8411405,7.01221996 17.6700611,6.5885947 17.4582485,6.20570265 L18.305499,5.35845214 C18.6435845,5.0203666 18.6435845,4.51120163 18.305499,4.17311609 L15.8492872,1.71690428 C15.5112016,1.37881874 14.9857434,1.39511202 14.6639511,1.71690428 L13.8167006,2.56415479 C13.4338086,2.35234216 13.0101833,2.18126273 12.586558,2.05498982 L12.586558,0.865580448 C12.586558,0.401221996 12.203666,0.0183299389 11.7393075,0.0183299389 L8.26476578,0.0183299389 C7.80040733,0.0183299389 7.41751527,0.401221996 7.41751527,0.865580448 L7.41751527,2.09572301 C6.99389002,2.22199593 6.61099796,2.39307536 6.18737271,2.56008147 L5.3401222,1.71283096 C5.00203666,1.37474542 4.49287169,1.37474542 4.15478615,1.71283096 L1.69450102,4.17311609 C1.35641548,4.51120163 1.35641548,5.0203666 1.69450102,5.35845214 L2.54175153,6.20570265 C2.3299389,6.5885947 2.15885947,7.01221996 2.03258656,7.43584521 L0.847250509,7.43584521 C0.382892057,7.43584521 0,7.81873727 0,8.28309572 L0,11.7576375 C0,12.2219959 0.382892057,12.604888 0.847250509,12.604888 L2.07739308,12.604888 C2.20366599,13.0285132 2.37474542,13.4114053 2.54175153,13.790224 L1.69450102,14.6374745 C1.52342159,14.808554 1.44195519,15.0203666 1.44195519,15.2321792 C1.44195519,15.4439919 1.52749491,15.6558045 1.69450102,15.8268839 L4.15071283,18.2830957 C4.48879837,18.6211813 4.99796334,18.6211813 5.33604888,18.2830957 L6.18329939,17.4358452 C6.56619145,17.6476578 6.9898167,17.8187373 7.41344196,17.9450102 L7.41344196,19.1303462 C7.41344196,19.5947047 7.79633401,19.9775967 8.26069246,19.9775967 L11.7352342,19.9775967 C12.1995927,19.9775967 12.5824847,19.6395112 12.5824847,19.1710794 L12.5824847,17.9857434 C13.00611,17.8594705 13.4297352,17.688391 13.8126273,17.4765784 L14.6598778,18.3238289 C14.9979633,18.6619145 15.5071283,18.6619145 15.8452138,18.3238289 L18.3014257,15.8676171 C18.6395112,15.5295316 18.6395112,15.0203666 18.3014257,14.6822811 L17.4541752,13.8350305 C17.6659878,13.4521385 17.8370672,13.0285132 17.9633401,12.604888 L19.1486762,12.604888 C19.6130346,12.604888 19.9959267,12.2219959 19.9959267,11.7576375 L19.9959267,8.28309572 C20,7.81466395 19.6211813,7.43584521 19.1527495,7.43584521 Z M18.305499,10.9511202 L17.287169,10.9511202 C16.904277,10.9511202 16.5661914,11.203666 16.4806517,11.586558 C16.3095723,12.2627291 16.0570265,12.9429735 15.6741344,13.5376782 C15.4623218,13.8757637 15.5478615,14.299389 15.8004073,14.5560081 L16.5213849,15.2769857 L15.2545825,16.5437882 L14.5336049,15.8228106 C14.2810591,15.5254582 13.8574338,15.4847251 13.5152749,15.6965377 C12.9205703,16.0794297 12.2443992,16.3319756 11.5641548,16.503055 C11.1812627,16.5885947 10.9287169,16.9266802 10.9287169,17.3095723 L10.9287169,18.3279022 L9.10794297,18.3279022 L9.06720978,18.3279022 L9.06720978,17.2688391 C9.06720978,16.885947 8.81466395,16.5478615 8.43177189,16.4623218 C7.75560081,16.2912424 7.07535642,16.0386965 6.48065173,15.6558045 C6.14256619,15.4439919 5.71894094,15.5295316 5.46232179,15.7820774 L4.74541752,16.503055 L3.47454175,15.2321792 L4.19551935,14.5112016 C4.49287169,14.2586558 4.53360489,13.8350305 4.32179226,13.4928717 C3.9389002,12.898167 3.68635438,12.2219959 3.51527495,11.5417515 C3.42973523,11.1588595 3.09164969,10.9063136 2.70875764,10.9063136 L1.6904277,10.9063136 L1.6904277,9.08553971 L2.74949084,9.08553971 C3.13238289,9.08553971 3.47046843,8.83299389 3.55600815,8.45010183 C3.72708758,7.77393075 3.9796334,7.09368635 4.36252546,6.49898167 C4.57433809,6.16089613 4.48879837,5.73727088 4.23625255,5.48065173 L3.51527495,4.75967413 L4.78615071,3.49287169 L5.50712831,4.21384929 C5.75967413,4.51120163 6.18329939,4.55193483 6.52545825,4.3401222 C7.12016293,3.95723014 7.79633401,3.70468432 8.47657841,3.53360489 C8.85947047,3.44806517 9.11201629,3.10997963 9.11201629,2.72708758 L9.11201629,1.70875764 L10.9327902,1.70875764 L10.9327902,2.76782077 C10.9327902,3.15071283 11.185336,3.48879837 11.5682281,3.57433809 C12.2443992,3.74541752 12.9246436,3.99796334 13.5193483,4.3808554 C13.8574338,4.59266802 14.2810591,4.50712831 14.5376782,4.25458248 L15.2545825,3.53360489 L16.5254582,4.80448065 L15.8044807,5.52545825 C15.5071283,5.77800407 15.4663951,6.20162933 15.6782077,6.54378819 C16.0610998,7.13849287 16.3136456,7.81466395 16.4847251,8.49490835 C16.5702648,8.87780041 16.9083503,9.13034623 17.2912424,9.13034623 L18.3095723,9.13034623 L18.3095723,10.9511202 L18.305499,10.9511202 L18.305499,10.9511202 Z" id="Shape"></path>
                <path d="M10,5.57026477 C7.54378819,5.57026477 5.55193483,7.56211813 5.55193483,10.0183299 C5.55193483,12.4745418 7.54378819,14.4663951 10,14.4663951 C12.4562118,14.4663951 14.4480652,12.4745418 14.4480652,10.0183299 C14.4480652,7.56211813 12.4562118,5.57026477 10,5.57026477 Z M10,12.8167006 C8.43177189,12.8167006 7.20162933,11.5458248 7.20162933,10.0183299 C7.20162933,8.45010183 8.47250509,7.21995927 10,7.21995927 C11.5274949,7.21995927 12.7983707,8.49083503 12.7983707,10.0183299 C12.7983707,11.586558 11.5682281,12.8167006 10,12.8167006 Z" id="Shape"></path>
            </g>
        </g>
    </g>
</svg>