{	
	"COMMON": {
		"TablePanel": [
			{ 'display': '기본정보', 'title': '기본정보', 'type': 'table', 'internal_id': 'bass_info', 'formType': 'display'  },
                        { 'display': '기본 정보', 'title': '기본 정보', 'type': 'table', 'internal_id': 'ser_bass_info', 'formType': 'display'  },
			{ 'display': '요청등록', 'title': '요청등록', 'type': 'table', 'internal_id': 'requst_regist', 'formType': 'editor' },
                        { 'display': '서비스데스크 접수', 'title': '서비스데스크 접수', 'type': 'table', 'internal_id': 'srdsk_rcept', 'formType': 'editor' },
			{ 'display': '요청분류', 'title': '요청분류', 'type': 'table', 'internal_id': 'requst_cl', 'formType': 'editor' },
                        { 'display': '요청확인', 'title': '요청확인', 'type': 'table', 'internal_id': 'requst_cnfirm', 'formType': 'editor' },
			{ 'display': '결과통보', 'title': '결과통보', 'type': 'table', 'internal_id': 'result_dspth', 'formType': 'editor' },
			{ 'display': '결과확인', 'title': '결과확인', 'type': 'table', 'internal_id': 'result_cnfirm', 'formType': 'editor' },
            		{ 'display': '등록편집', 'title': '등록편집', 'type': 'table', 'internal_id': 'end_edit_requst', 'formType': 'editor' }
		],
		"Grid": [
			{ 'display': '변경', 'title': '협력업체', 'type': 'grid', 'internal_id': 'vendor_gird', 'resource_prefix': 'grid.cipop.sampleasset', 'url': '/itg/system/userGrp/searchProcessAuthList.do'  },
			{ 'display': '문제', 'title': '사용자정보', 'type': 'grid', 'internal_id': 'user_gird', 'resource_prefix': 'grid.cipop.sampleasset', 'url': '/itg/system/userGrp/searchProcessAuthList.do' }
		],
		"AddGrid": [
			{ 	
				'display': '구성자원조회', 'title': '구성자원조회', 'type': 'addgrid', 'internal_id': 'setCiAssetGrid', 'gridType': 'editor', 'resource_prefix': 'grid.cipop.sampleasset', 
				'url': '/itg/system/userGrp/searchProcessAuthList.do', 'callFunc': 'ciGridActionLink', 'dockLoc': 'bottom', 'dockedType': 'toolbar',
				'addBtnId': 'ciAddBtn', 'addBtnLabel': '#springMessage("btn.common.append.trim")', 'addBtnAction': 'createCiAssetTreePop("setCiAssetGrid")',
				'delBtnId': 'ciDelBtn', 'delBtnLabel': '#springMessage("btn.common.remove.trim")', 'delBtnAction': 'selectedRowDel("setCiAssetGrid")'
			} ,
                        { 	
				'display': '사업수행예산', 'title': '사업수행예산', 'type': 'addgrid', 'internal_id': 'setInspectionGrid', 'gridType': 'editor', 'resource_prefix': 'grid.nice.inspection.budge.pop', 
				'url': '/itg/customize/nice/searchInspectionBudgeList.do', 'callFunc': 'budgeGridActionLink', 'dockLoc': 'bottom', 'dockedType': 'toolbar',
				'addBtnId': 'budgeAddBtn', 'addBtnLabel': '#springMessage("btn.common.append.trim")', 'addBtnAction': 'createBudgePop("setInspectionGrid")',
				'delBtnId': 'budgeDelBtn', 'delBtnLabel': '#springMessage("btn.common.remove.trim")', 'delBtnAction': 'selectedRowDel("setInspectionGrid")'
			}
		],
		"ProcessSubGrid": [
			{ 'display': '서비스연계요청(서비스 - 서비스)', 'title': '서비스연계요청', 'type': 'processsubgrid', 'internal_id': 'requst_regist_grid', 'resource_prefix': 'grid.process.link.rel',
				'selectQuerykey': 'serviceLinkRelService', 'insertQuerykey': '', 'deleteQuerykey': '', 'gridType': 'editor'
			},
                        { 'display': '연계요청(서비스 - 변경,문제 : 요청접수)', 'title': '연계요청', 'type': 'processsubgrid', 'internal_id': 'requst_rcept_grid', 'resource_prefix': 'grid.process.link.rel',
				'selectQuerykey': 'serviceLinkRelNotService', 'insertQuerykey': '', 'deleteQuerykey': '', 'gridType': 'editor'
			},
                        { 'display': '연계요청(장애관리)', 'title': '연계요청', 'type': 'processsubgrid', 'internal_id': 'requst_result_grid', 'resource_prefix': 'grid.process.link.rel',
				'selectQuerykey': 'searchLinkRelProcess', 'insertQuerykey': '', 'deleteQuerykey': '', 'gridType': 'editor'
			},
                       { 'display': '연계요청(서비스 - 변경,문제 : 처리및결과)', 'title': '연계요청', 'type': 'processsubgrid', 'internal_id': 'proc_complete_grid', 'resource_prefix': 'grid.process.link.rel',
				'selectQuerykey': 'serviceLinkRelNotService', 'insertQuerykey': '', 'deleteQuerykey': '', 'gridType': 'editor'
			},
			{ 'display': '이메일발송대상자', 'title': '이메일발송대상자', 'type': 'processsubgrid', 'internal_id': 'email_send', 'resource_prefix': 'grid.process.email.send',
				'selectQuerykey': 'selectPROC_EMAIL_SEND', 'insertQuerykey': 'insertPROC_EMAIL_SEND', 'deleteQuerykey': 'deletePROC_EMAIL_SEND', 'gridType': 'editor'
			},
			{ 'display': '투입자원', 'title': '투입자원', 'type': 'processsubgrid', 'internal_id': 'insert_resources', 'resource_prefix': 'grid.process.insert.resources',
				'selectQuerykey': 'selectSERVICE_RESOURCES', 'insertQuerykey': 'insertSERVICE_RESOURCES', 'deleteQuerykey': 'deleteSERVICE_RESOURCES', 'gridType': 'editor'
			},
			{ 'display': 'ubit테스트용그리드1', 'title': 'ubit테스트용그리드1', 'type': 'processsubgrid', 'internal_id': 'ubit_test1', 'resource_prefix': 'grid.process.insert.resources',
				'selectQuerykey': 'selectSERVICE_RESOURCES', 'insertQuerykey': 'insertSERVICE_RESOURCES', 'deleteQuerykey': 'deleteSERVICE_RESOURCES', 'gridType': 'editor'
			},
			{ 'display': 'ubit테스트용그리드2', 'title': 'ubit테스트용그리드2', 'type': 'processsubgrid', 'internal_id': 'ubit_test2', 'resource_prefix': 'grid.process.insert.resources',
				'selectQuerykey': 'selectSERVICE_RESOURCES', 'insertQuerykey': 'insertSERVICE_RESOURCES', 'deleteQuerykey': 'deleteSERVICE_RESOURCES', 'gridType': 'editor'
			},
                        { 	
				'display':'요구사항처리(멀티)', 'title': '요구사항처리(멀티)', 'type': 'addoperatorgrid', 'internal_id': 'embdComptSelectGrid', 'gridType': 'editor', 'resource_prefix': 'grid.process.oper', 
				'url': '', 'callFunc': 'operatorGridActionLink', 'roleId': 'ROLE_OPETR_03', 'dockLoc': 'bottom', 'dockedType': 'toolbar',
				'addBtnId': 'userAddBtn', 'addBtnLabel': '추가', 'addBtnAction': 'clickAddBtnInOperUserGrid("operUserSelectGrid")',
				'delBtnId': 'userDelBtn', 'delBtnLabel': '삭제', 'delBtnAction': 'clickDeleteBtnInOperUserGrid("operUserSelectGrid")'
			},
			{ 	
				'display':'통합테스트(멀티)', 'title': '통합테스트(멀티)', 'type': 'addoperatorgrid', 'internal_id': 'unityTestSelectGrid', 'gridType': 'editor', 'resource_prefix': 'grid.process.oper', 
				'url': '', 'callFunc': 'operatorGridActionLink', 'roleId': 'ROLE_OPETR_04', 'dockLoc': 'bottom', 'dockedType': 'toolbar',
				'addBtnId': 'userAddBtn', 'addBtnLabel': '추가', 'addBtnAction': 'clickAddBtnInOperUserGrid("operUserSelectGrid")',
				'delBtnId': 'userDelBtn', 'delBtnLabel': '삭제', 'delBtnAction': 'clickDeleteBtnInOperUserGrid("operUserSelectGrid")'
			},
                        { 	
				'display': '사업수행예산', 'title': '사업수행예산', 'type': 'processsubgrid', 'internal_id': 'setInspectionGrid', 'resource_prefix': 'grid.nice.inspection.budge.pop',
				'selectQuerykey': 'selectPROC_INSSUB_LINK', 'insertQuerykey': 'insertPROC_INSSUB_LINK', 'deleteQuerykey': 'deletePROC_INSSUB_LINK', 'gridType': 'editor',
				'addBtnId': 'userAddBtn', 'addBtnLabel': '추가', 'addBtnAction': 'addInspectionBudge("setInspectionGrid")',
				'delBtnId': 'userDelBtn', 'delBtnLabel': '삭제', 'delBtnAction': 'deleteInspectionBudge("setInspectionGrid")'
			}			
		],
                "AddOperatorGrid": [   
			{ 	
				'display': 'CAB승인자', 'title': 'CAB승인자', 'type': 'addoperatorgrid', 'internal_id': 'cabOperUserSelectGrid', 'gridType': 'editor', 'resource_prefix': 'grid.process.oper', 
				'url': '', 'callFunc': 'operatorGridActionLink', 'roleId': 'role3', 'dockLoc': 'bottom', 'dockedType': 'toolbar',
				'addBtnId': 'userAddBtn', 'addBtnLabel': '추가', 'addBtnAction': 'clickAddBtnInOperUserGrid("operUserSelectGrid")',
				'delBtnId': 'userDelBtn', 'delBtnLabel': '삭제', 'delBtnAction': 'clickDeleteBtnInOperUserGrid("operUserSelectGrid")'
			},
			{ 	
				'display': '공동작업자', 'title': '공동작업자', 'type': 'addoperatorgrid', 'internal_id': 'commOperUserSelectGrid', 'gridType': 'editor', 'resource_prefix': 'grid.process.oper', 
				'url': '', 'callFunc': 'operatorGridActionLink', 'roleId': 'role1', 'dockLoc': 'bottom', 'dockedType': 'toolbar',
				'addBtnId': 'userAddBtn', 'addBtnLabel': '추가', 'addBtnAction': 'clickAddBtnInOperUserGrid("operUserSelectGrid")',
				'delBtnId': 'userDelBtn', 'delBtnLabel': '삭제', 'delBtnAction': 'clickDeleteBtnInOperUserGrid("operUserSelectGrid")'
			}			
		],
               "MultiTaskGrid": [
			{ 	
				'display': '협업처리', 'title': '협업처리', 'type': 'multitaskgrid', 'internal_id': 'crMultiTaskGrid', 'gridType': 'editor', 'resource_prefix': 'grid.process.change.multitask', 
				'url': '', 'roleId': 'ROLE_OPETR_02', 'gridType': 'editor', 'editorMode' : 'true', 'tableName' : 'PROC_MULTI_CR', 'gridHeight' : '250', 'eventName': 'MULTI_CR_PROC'
			}
		],
"ProcessGridField": [			
                       { 
                                'display': '작업체크리스트', 'title': '작업체크리스트', 'type': 'processgridfield', 'internal_id': 'checklist_grid', 'name': 'checklist_grid', 'resource_prefix': 'grid.process.checklist.ubit', 'url': '/itg/workflow/workCheckList/searchWorkSrCheckList.do',
				'selectQuerykey': 'searchWorkSrCheckListList', 'insertQuerykey': 'insertWorkSrCheckList', 'deleteQuerykey': '', 'gridType': 'editor', 'popUpType':'checklistGrid','headerMerges':[]
			},                       
                       { 
                                'display': '작업절차', 'title': '작업절차', 'type': 'processgridfield', 'internal_id': 'work_step', 'name': 'work_step', 'resource_prefix': 'grid.process.workstep.ubit', 'url': '/itg/nbpm/common/searchProcessGridField.do',
				'selectQuerykey': 'selectWORK_STEP', 'insertQuerykey': 'insertWORK_STEP', 'deleteQuerykey': 'deleteWORK_STEP', 'gridType': 'editor', 'popUpType':'','requiredColumns': ["WORK_CONTENT", "WORK_USER_NM"],'headerMerges':[],'editprops':[{'column': 'YN','attachChoice': true,'params': {'code_grp_id' : 'YN'}},{'column': 'ZONE','attachChoice': true,'params': {'code_grp_id' : 'ZONE'}}]
			},
                        { 	
				  'display': '도메인목록', 'title': '도메인목록', 'type': 'processgridfield', 'internal_id': 'zone_grid', 'name': 'zone_grid', 'resource_prefix': 'grid.process.dns.zone.list', 'url': '/itg/nbpm/common/searchProcessGridField.do',
				'selectQuerykey': 'selectPROC_DNS_ZONE_GRID', 'insertQuerykey': 'insertPROC_DNS_ZONE_GRID', 'deleteQuerykey': 'deletePROC_DNS_ZONE_GRID', 'gridType': 'editor', 'popUpType':'zoneInsert','headerMerges':[],'requiredColumns': ['MGMT_PLACE','ZONE_ID_NM','BUY_SITE_CN','BUY_SITE_URL_CN','BUY_DT','EXPIRE_DT','BUY_USER','MGMT_USER'],'editprops':[{'column': 'MGMT_PLACE','attachChoice': true,'params': {'code_grp_id' : 'MGMT_PLACE'}}]
			},
                        { 	
				  'display': '삭제도메인목록', 'title': '삭제도메인목록', 'type': 'processgridfield', 'internal_id': 'zone_del_grid', 'name': 'zone_del_grid', 'resource_prefix': 'grid.process.dns.zone.del', 'url': '/itg/nbpm/common/searchProcessGridField.do',
				'selectQuerykey': 'selectPROC_DNS_ZONE_GRID', 'insertQuerykey': 'insertDELPROC_DNS_ZONE_GRID', 'deleteQuerykey': 'deletePROC_DNS_ZONE_GRID', 'gridType': 'editor', 'popUpType':'zoneSelect','headerMerges':[],'editprops':[{'column': 'MGMT_PLACE','attachChoice': true,'params': {'code_grp_id' : 'MGMT_PLACE'}}]
			},
                       { 
                                'display': '레코드등록', 'title': "#springMessage('process.resource.900001')", 'type': 'processgridfield', 'internal_id': 'record_insert', 'name': 'record_insert', 'resource_prefix': 'grid.process.work.recordInsert', 'url': '/itg/nbpm/common/searchProcessGridField.do',
				'selectQuerykey': 'selectPROC_DNS_RECORD_GRID', 'insertQuerykey': 'insertPROC_DNS_RECORD_GRID', 'deleteQuerykey': 'deletePROC_DNS_RECORD_GRID', 'gridType': 'editor', 'popUpType':'recordInsert','headerMerges':[],
'editprops':[{'column': 'RECORD_TYPE_CD','attachChoice': false,'params': {'code_grp_id' : 'RECORD_TYPE_CD'}}]
			},
                       { 
                                'display': '레코드변경', 'title': "#springMessage('process.resource.900001')", 'type': 'processgridfield', 'internal_id': 'record_change', 'name': 'record_change', 'resource_prefix': 'grid.process.work.recordChange', 'url': '/itg/nbpm/common/searchProcessGridField.do',
				'selectQuerykey': 'selectPROC_DNS_RECORD_GRID', 'insertQuerykey': 'insertPROC_DNS_RECORD_GRID', 'deleteQuerykey': 'deletePROC_DNS_RECORD_GRID', 'gridType': 'editor', 'popUpType':'recordSerch','headerMerges':[],
'editprops':[{'column': 'RECORD_TYPE_CD','params': {'code_grp_id' : 'RECORD_TYPE_CD'}}]
			},
                       { 
                                'display': '레코드삭제', 'title': "#springMessage('process.resource.900001')", 'type': 'processgridfield', 'internal_id': 'record_delete', 'name': 'record_delete', 'resource_prefix': 'grid.process.work.recordDelete', 'url': '/itg/nbpm/common/searchProcessGridField.do',
				'selectQuerykey': 'selectPROC_DNS_RECORD_GRID', 'insertQuerykey': 'insertPROC_DNS_RECORD_GRID', 'deleteQuerykey': 'deletePROC_DNS_RECORD_GRID', 'gridType': 'editor', 'popUpType':'recordSerchDelete','headerMerges':[],
'editprops':[{'column': 'RECORD_TYPE_CD','params': {'code_grp_id' : 'RECORD_TYPE_CD'}}]
			},
                        { 	
				  'display': '참석자', 'title': '참석자', 'type': 'processgridfield', 'internal_id': 'attendees_grid', 'name': 'attendees_grid', 'resource_prefix': 'grid.process.change.attendees', 'url': '/itg/nbpm/common/searchProcessGridField.do',
				'selectQuerykey': 'selectPROC_CHANGE_ATTENDEES_GRID', 'insertQuerykey': 'insertPROC_CHANGE_ATTENDEES_GRID', 'deleteQuerykey': 'deletePROC_CHANGE_ATTENDEES_GRID', 'gridType': 'editor', 'popUpType':'attendees','headerMerges':[]
			},
                        { 	
				  'display': 'CAB소집이력', 'title': 'CAB소집이력', 'type': 'processgridfield', 'internal_id': 'change_cab_his_grid', 'name': 'change_cab_his_grid', 'resource_prefix': 'grid.process.change.history', 'url': '/itg/nbpm/common/searchProcessGridField.do',
				'selectQuerykey': 'selectPROC_CHANGE_CAB_HIS', 'insertQuerykey': '', 'deleteQuerykey': '', 'gridType': 'display', 'popUpType':'','headerMerges':[]
			},
                        { 	
				  'display': '알림대상자설정(변경계획수립)', 'title': '알림대상자설정', 'type': 'processgridfield', 'internal_id': 'alarm_trget_plan_grid', 'name': 'alarm_trget_plan_grid', 'resource_prefix': 'grid.process.change.alarm', 'url': '/itg/nbpm/common/searchProcessGridField.do',
				'selectQuerykey': 'selectPROC_CHANGE_ALARM_TRGET_GRID', 'insertQuerykey': 'insertPROC_CHANGE_ALARM_TRGET_GRID', 'deleteQuerykey': 'deletePROC_CHANGE_ALARM_TRGET_GRID', 'gridType': 'editor', 'popUpType':'changeAlarm','headerMerges':[]
			},
                        { 	
				  'display': '알림대상자설정(변경수행결과)', 'title': '알림대상자설정', 'type': 'processgridfield', 'internal_id': 'alarm_trget_result_grid', 'name': 'alarm_trget_result_grid', 'resource_prefix': 'grid.process.change.alarm', 'url': '/itg/nbpm/common/searchProcessGridField.do',
				'selectQuerykey': 'selectPROC_CHANGE_ALARM_TRGET_GRID', 'insertQuerykey': 'insertPROC_CHANGE_ALARM_TRGET_GRID', 'deleteQuerykey': 'deletePROC_CHANGE_ALARM_TRGET_GRID', 'gridType': 'editor', 'popUpType':'changeAlarm','headerMerges':[]
			},
                        { 	
				  'display': '출입자정보(요청등록)', 'title': '출입자정보', 'type': 'processgridfield', 'internal_id': 'regist_guest_grid', 'name': 'regist_guest_grid', 'resource_prefix': 'grid.process.center.guest.regist', 'url': '/itg/nbpm/common/searchProcessGridField.do',
				'selectQuerykey': 'selectPROC_CENTER_GUEST_GRID', 'insertQuerykey': 'insertPROC_CENTER_GUEST_GRID', 'deleteQuerykey': 'deletePROC_CENTER_GUEST_GRID', 'gridType': 'editor', 'popUpType':'','requiredColumns': ["GUEST_CD", "AFFILIATION", "WORK_USER_ID", "HP_NO", "ENTRANCE_CONTENT"],'editprops':[{'column': 'GUEST_CD','attachChoice': true,'params': {'code_grp_id' : 'GUEST_CD'}}],'headerMerges':[]
			},
                        { 	
				  'display': '작업절차', 'title': '작업절차', 'type': 'processgridfield', 'internal_id': 'center_work_grid', 'name': 'center_work_grid', 'resource_prefix': 'grid.process.center.work', 'url': '/itg/nbpm/common/searchProcessGridField.do',
				'selectQuerykey': 'selectPROC_CENTER_WORK_GRID', 'insertQuerykey': 'insertPROC_CENTER_WORK_GRID', 'deleteQuerykey': 'deletePROC_CENTER_WORK_GRID', 'gridType': 'editor', 'popUpType':'centerWork','headerMerges':[],'requiredColumns': ["WORK_STR_DT_DAY", "WORK_STR_TIME","WORK_END_DT_DAY","WORK_END_TIME","WORK_CONTENT","WORK_USER_ID"]
			},
                        { 	
				  'display': '출입자정보(출퇴실처리)', 'title': '출입자정보', 'type': 'processgridfield', 'internal_id': 'proc_guest_grid', 'name': 'proc_guest_grid', 'resource_prefix': 'grid.process.center.guest.proc', 'url': '/itg/nbpm/common/searchProcessGridField.do',
				'selectQuerykey': 'selectPROC_CENTER_GUEST_GRID', 'insertQuerykey': 'insertPROC_CENTER_GUEST_GRID', 'deleteQuerykey': 'deletePROC_CENTER_GUEST_GRID', 'gridType': 'editor', 'popUpType':'centerGuestInfo','requiredColumns': ["GUEST_STATE", "CARD_NUMBER", "IN_TIME", "OUT_TIME"],'headerMerges':[]
			},
                        { 	
				  'display': '작업계획', 'title': '작업계획', 'type': 'processgridfield', 'internal_id': 'change_work_grid', 'name': 'change_work_grid', 'resource_prefix': 'grid.process.change.work', 'url': '/itg/nbpm/common/searchProcessGridField.do',
				'selectQuerykey': 'selectPROC_CHANGE_WORK_GRID', 'insertQuerykey': 'insertPROC_CHANGE_WORK_GRID', 'deleteQuerykey': 'deletePROC_CHANGE_WORK_GRID', 'gridType': 'editor', 'popUpType':'','headerMerges':[],'requiredColumns': ["WORK_STR_DT_DAY", "WORK_STR_TIME","WORK_END_DT_DAY","WORK_END_TIME","WORK_CONTENT","WORK_USER_ID"]
			},
                        { 	
				  'display': '상주 엔지니어', 'title': '상주 엔지니어', 'type': 'processgridfield', 'internal_id': 'engineer_support_grid', 'name': 'engineer_support_grid', 'resource_prefix': 'grid.process.engineer.support', 'url': '/itg/nbpm/common/searchProcessGridField.do',
				'selectQuerykey': 'selectPROC_ENGINEER_SUPPORT_GRID', 'insertQuerykey': 'insertPROC_ENGINEER_SUPPORT_GRID', 'deleteQuerykey': 'deletePROC_ENGINEER_SUPPORT_GRID', 'gridType': 'editor', 'popUpType':'','headerMerges':[],'requiredColumns': ["SUPPORT_ENGIN_NM", "SUPPORT_TYPE","SUPPORT_CONTENT"],'editprops':[{'column': 'SUPPORT_TYPE','attachChoice': true,'params': {'code_grp_id' : 'SUPPORT_TYPE'}}]
			},
                      { 
                                'display': '로우포맷 신청 리스트', 'title': '로우포맷 신청 리스트', 'type': 'processgridfield', 'internal_id': 'lowformat_list', 'name': 'lowformat_list', 'resource_prefix': 'grid.process.lowformat', 'url': '/itg/nbpm/common/searchProcessGridField.do',
				'selectQuerykey': 'selectPROC_LOWFORMAT_GRID', 'insertQuerykey': 'insertPROC_LOWFORMAT_GRID', 'deleteQuerykey': 'deletePROC_LOWFORMAT_GRID', 'gridType': 'editor', 'popUpType':'lowformatlist','headerMerges':[],'requiredColumns': ["CLASS_ID_NM", "HOST_NM","HARD_DISK_TYPE","DISK_DETAIL","REC_DATE","COM_DATE"],
'editprops':[{'column': 'HARD_DISK_TYPE','attachChoice': true,'params': {'code_grp_id' : 'HARD_DISK_TYPE'}}]
			},
                        { 	
				  'display': '처리내용목록(장애관리)', 'title': '처리내용목록', 'type': 'processgridfield', 'internal_id': 'incident_work_grid', 'name': 'incident_work_grid', 'resource_prefix': 'grid.process.incident.work', 'url': '/itg/nbpm/common/searchProcessGridField.do',
				'selectQuerykey': 'selectPROC_INCIDENT_WORK_GRID', 'insertQuerykey': 'insertPROC_INCIDENT_WORK_GRID', 'deleteQuerykey': 'deletePROC_INCIDENT_WORK_GRID', 'gridType': 'editor', 'popUpType':'','headerMerges':[]
			},
                        { 	
				  'display': '서비스영향목록', 'title': '서비스영향목록 (장애등급이 A, B 등급일 경우 필수 입력사항 입니다.)', 'type': 'processgridfield', 'internal_id': 'incident_service_grid', 'name': 'incident_service_grid', 'resource_prefix': 'grid.process.incident.service', 'url': '/itg/nbpm/common/searchProcessGridField.do',
				'selectQuerykey': 'selectPROC_INCIDENT_SERVICE_GRID', 'insertQuerykey': 'insertPROC_INCIDENT_SERVICE_GRID', 'deleteQuerykey': 'deletePROC_INCIDENT_SERVICE_GRID', 'gridType': 'editor', 'popUpType':'incidentServiceList','headerMerges':[],'requiredColumns': ["AVAILABILITY_YN", "INFLUENCE_RANGE"],'editprops':[{'column': 'AVAILABILITY_YN','params': {'code_grp_id' : 'AVAILABILITY_YN'}}]
			},
                        { 	
				  'display': '관련장애 이벤트', 'title': '관련장애 이벤트', 'type': 'processgridfield', 'internal_id': 'incident_ems_grid', 'name': 'incident_ems_grid', 'resource_prefix': 'grid.process.incident.ems', 'url': '/itg/nbpm/common/searchProcessGridField.do',
				'selectQuerykey': 'selectPROC_INCIDENT_EMS_GRID', 'insertQuerykey': 'insertPROC_INCIDENT_EMS_GRID', 'deleteQuerykey': 'deletePROC_INCIDENT_EMS_GRID', 'gridType': 'editor', 'popUpType':'incidentEmsList','headerMerges':[]
			},
                        { 	
				  'display': '처리내용목록(문제관리)', 'title': '처리내용목록', 'type': 'processgridfield', 'internal_id': 'problem_work_grid', 'name': 'problem_work_grid', 'resource_prefix': 'grid.process.problem.work', 'url': '/itg/nbpm/common/searchProcessGridField.do',
				'selectQuerykey': 'selectPROC_PROBLEM_WORK_GRID', 'insertQuerykey': 'insertPROC_PROBLEM_WORK_GRID', 'deleteQuerykey': 'deletePROC_PROBLEM_WORK_GRID', 'gridType': 'editor', 'popUpType':'','headerMerges':[],'requiredColumns': ["WORK_STR_DT_DAY", "WORK_STR_TIME","WORK_END_DT_DAY","WORK_END_TIME","WORK_CONTENT","WORK_USER_ID"]
			},
                        {
                                  'display':'센터이전리스트', 'title':'센터이전리스트', 'type':'processgridfield', 'internal_id':'center_move', 'name':'problem_work_grid', 'resource_prefix':'grid.process.center.move', 'url':'/itg/nbpm/common/searchProcessGridField.do', 'selectQuerykey':'selectPROC_CENTER_MOVE_GRID', 'insertQuerykey':'insertPROC_CENTER_MOVE_GRID', 'deleteQuerykey':'deletePROC_CENTER_MOVE_GRID', 'gridType':'editor', 'popUpType':'centermove', 'requiredColumns':["TO_CENTER_POSITION_CD"],'headerMerges':[[{'column': 'CUSTOMER_ID_NM','merge_range': 4,'view_text': '기본정보'},{'column': 'AS_CENTER_POSITION_CD','merge_range': 3,'view_text': '변경 전 위치 정보'},{'column': 'TO_CENTER_POSITION_CD','merge_range': 3,'view_text': '변경 후 위치 정보'}]]

                       }

		]
	},
"SERVICE_MAIN": {
		"TablePanel": [
			{ 'display': '요청등록', 'title': "#springMessage('process.resource.000001')", 'type': 'table', 'internal_id': 'requst_regist', 'formType': 'editor'}
                	,{ 'display': '요청부서결재', 'title': "#springMessage('process.resource.000002')", 'type': 'table', 'internal_id': 'req_cust_approval', 'formType': 'editor'}
                        ,{ 'display': 'SM기획결재', 'title': "#springMessage('process.resource.000003')", 'type': 'table', 'internal_id': 'sm_approval', 'formType': 'editor'}
                        ,{ 'display': '요청접수', 'title': "#springMessage('process.resource.000004')", 'type': 'table', 'internal_id': 'requst_rcept', 'formType': 'editor'}
                        ,{ 'display': '처리 및 완료', 'title': "#springMessage('process.resource.000005')", 'type': 'table', 'internal_id': 'proc_complete', 'formType': 'editor'}
                        ,{ 'display': '관리자확인', 'title': "#springMessage('process.resource.000006')", 'type': 'table', 'internal_id': 'manager_cnfirm', 'formType': 'editor'}
                        ,{ 'display': '임시TASK', 'title': "#springMessage('process.resource.000007')", 'type': 'table', 'internal_id': 'temp_link', 'formType': 'editor'}
		],
		"Grid": [],
		"AddGrid": [],
		"AddOperatorGrid": [],
               "MultiTaskGrid": []
	},
"SERVICE_TESTA": {
		"TablePanel": [
			{ 'display': '요청등록', 'title': "#springMessage('process.resource.000006')", 'type': 'table', 'internal_id': 'requst_regist', 'formType': 'editor'}
                	,{ 'display': '요청접수및검토', 'title': "1번테스트 요청접수", 'type': 'table', 'internal_id': 'requst_rcept', 'formType': 'editor'}
                        ,{ 'display': '요청처리승인', 'title': "1번테스트 요청처리", 'type': 'table', 'internal_id': 'requst_cnfirm', 'formType': 'editor'}
                        ,{ 'display': '작업수행및결과통보', 'title': "1번테스트 결과통보", 'type': 'table', 'internal_id': 'service_managt', 'formType': 'editor'}
                        ,{ 'display': '결과확인', 'title': "1번테스트 결과확인", 'type': 'table', 'internal_id': 'result_cnfirm', 'formType': 'editor'}
		],
		"Grid": [],
		"AddGrid": [],
		"AddOperatorGrid": [],
               "MultiTaskGrid": []
	},
"SERVICE_TESTB": {
		"TablePanel": [
			{ 'display': '요청등록', 'title': "#springMessage('process.resource.000007')", 'type': 'table', 'internal_id': 'requst_regist', 'formType': 'editor'}
                	,{ 'display': '요청접수및검토', 'title': "2번테스트 요청접수", 'type': 'table', 'internal_id': 'requst_rcept', 'formType': 'editor'}
                        ,{ 'display': '요청처리승인', 'title': "2번테스트 요청처리", 'type': 'table', 'internal_id': 'requst_cnfirm', 'formType': 'editor'}
                        ,{ 'display': '작업수행및결과통보', 'title': "2번테스트 결과통보", 'type': 'table', 'internal_id': 'service_managt', 'formType': 'editor'}
                        ,{ 'display': '결과확인', 'title': "2번테스트 결과확인", 'type': 'table', 'internal_id': 'result_cnfirm', 'formType': 'editor'}
		],
		"Grid": [],
		"AddGrid": [],
		"AddOperatorGrid": [],
               "MultiTaskGrid": []
	},
"SERVICE_TESTC": {
		"TablePanel": [
			{ 'display': '요청등록', 'title': "#springMessage('process.resource.000008')", 'type': 'table', 'internal_id': 'requst_regist', 'formType': 'editor'}
			,{ 'display': '그리드폼테스트', 'title': '그리드폼테스트', 'type': 'table', 'internal_id': 'grid_form', 'formType': 'editor'}
                	,{ 'display': '요청접수및검토', 'title': "3번테스트 요청접수", 'type': 'table', 'internal_id': 'requst_rcept', 'formType': 'editor'}
                        ,{ 'display': '요청처리승인', 'title': "3번테스트 요청처리", 'type': 'table', 'internal_id': 'requst_cnfirm', 'formType': 'editor'}
                        ,{ 'display': '작업수행및결과통보', 'title': "3번테스트 결과통보", 'type': 'table', 'internal_id': 'service_managt', 'formType': 'editor'}
                        ,{ 'display': '결과확인', 'title': "3번테스트 결과확인", 'type': 'table', 'internal_id': 'result_cnfirm', 'formType': 'editor'}
		],
		"Grid": [],
		"AddGrid": [],
		"AddOperatorGrid": [],
               "MultiTaskGrid": []
	},
"SERVICE_ZONE_INSERT": {
		"TablePanel": [
			{ 'display': '요청등록', 'title': "#springMessage('process.resource.000001')", 'type': 'table', 'internal_id': 'requst_regist', 'formType': 'editor'}
                	,{ 'display': '요청부서결재', 'title': "#springMessage('process.resource.000002')", 'type': 'table', 'internal_id': 'req_cust_approval', 'formType': 'editor'}
                        ,{ 'display': 'SM기획결재', 'title': "#springMessage('process.resource.000003')", 'type': 'table', 'internal_id': 'sm_approval', 'formType': 'editor'}
                        ,{ 'display': '요청접수', 'title': "#springMessage('process.resource.000004')", 'type': 'table', 'internal_id': 'requst_rcept', 'formType': 'editor'}
                        ,{ 'display': '처리 및 완료', 'title': "#springMessage('process.resource.000005')", 'type': 'table', 'internal_id': 'proc_complete', 'formType': 'editor'}
                        ,{ 'display': '관리자확인', 'title': "#springMessage('process.resource.000006')", 'type': 'table', 'internal_id': 'manager_cnfirm', 'formType': 'editor'}
                        ,{ 'display': '임시TASK', 'title': "#springMessage('process.resource.000007')", 'type': 'table', 'internal_id': 'temp_link', 'formType': 'editor'}
		],
		"Grid": [],
		"AddGrid": [],
		"AddOperatorGrid": [],
               "MultiTaskGrid": []
	},
"SERVICE_ZONE_DELETE": {
		"TablePanel": [
			{ 'display': '요청등록', 'title': "#springMessage('process.resource.000001')", 'type': 'table', 'internal_id': 'requst_regist', 'formType': 'editor'}
                	,{ 'display': '요청부서결재', 'title': "#springMessage('process.resource.000002')", 'type': 'table', 'internal_id': 'req_cust_approval', 'formType': 'editor'}
                        ,{ 'display': 'SM기획결재', 'title': "#springMessage('process.resource.000003')", 'type': 'table', 'internal_id': 'sm_approval', 'formType': 'editor'}
                        ,{ 'display': '요청접수', 'title': "#springMessage('process.resource.000004')", 'type': 'table', 'internal_id': 'requst_rcept', 'formType': 'editor'}
                        ,{ 'display': '처리 및 완료', 'title': "#springMessage('process.resource.000005')", 'type': 'table', 'internal_id': 'proc_complete', 'formType': 'editor'}
                        ,{ 'display': '관리자확인', 'title': "#springMessage('process.resource.000006')", 'type': 'table', 'internal_id': 'manager_cnfirm', 'formType': 'editor'}
                        ,{ 'display': '임시TASK', 'title': "#springMessage('process.resource.000007')", 'type': 'table', 'internal_id': 'temp_link', 'formType': 'editor'}
		],
		"Grid": [],
		"AddGrid": [],
		"AddOperatorGrid": [],
               "MultiTaskGrid": []
	},
"SERVICE_RECORD_INSERT": {
		"TablePanel": [
			{ 'display': '요청등록', 'title': "#springMessage('process.resource.000001')", 'type': 'table', 'internal_id': 'requst_regist', 'formType': 'editor'}
                	,{ 'display': '요청부서결재', 'title': "#springMessage('process.resource.000002')", 'type': 'table', 'internal_id': 'req_cust_approval', 'formType': 'editor'}
                        ,{ 'display': 'SM기획결재', 'title': "#springMessage('process.resource.000003')", 'type': 'table', 'internal_id': 'sm_approval', 'formType': 'editor'}
                        ,{ 'display': '요청접수', 'title': "#springMessage('process.resource.000004')", 'type': 'table', 'internal_id': 'requst_rcept', 'formType': 'editor'}
                        ,{ 'display': '처리 및 완료', 'title': "#springMessage('process.resource.000005')", 'type': 'table', 'internal_id': 'proc_complete', 'formType': 'editor'}
                        ,{ 'display': '관리자확인', 'title': "#springMessage('process.resource.000006')", 'type': 'table', 'internal_id': 'manager_cnfirm', 'formType': 'editor'}
                        ,{ 'display': '임시TASK', 'title': "#springMessage('process.resource.000007')", 'type': 'table', 'internal_id': 'temp_link', 'formType': 'editor'}
		],
		"Grid": [],
		"AddGrid": [],
		"AddOperatorGrid": [],
               "MultiTaskGrid": []
	},
"SERVICE_RECORD_CHANGE": {
		"TablePanel": [
			{ 'display': '요청등록', 'title': "#springMessage('process.resource.000001')", 'type': 'table', 'internal_id': 'requst_regist', 'formType': 'editor'}
                	,{ 'display': '요청부서결재', 'title': "#springMessage('process.resource.000002')", 'type': 'table', 'internal_id': 'req_cust_approval', 'formType': 'editor'}
                        ,{ 'display': 'SM기획결재', 'title': "#springMessage('process.resource.000003')", 'type': 'table', 'internal_id': 'sm_approval', 'formType': 'editor'}
                        ,{ 'display': '요청접수', 'title': "#springMessage('process.resource.000004')", 'type': 'table', 'internal_id': 'requst_rcept', 'formType': 'editor'}
                        ,{ 'display': '처리 및 완료', 'title': "#springMessage('process.resource.000005')", 'type': 'table', 'internal_id': 'proc_complete', 'formType': 'editor'}
                        ,{ 'display': '관리자확인', 'title': "#springMessage('process.resource.000006')", 'type': 'table', 'internal_id': 'manager_cnfirm', 'formType': 'editor'}
                        ,{ 'display': '임시TASK', 'title': "#springMessage('process.resource.000007')", 'type': 'table', 'internal_id': 'temp_link', 'formType': 'editor'}
		],
		"Grid": [],
		"AddGrid": [],
		"AddOperatorGrid": [],
               "MultiTaskGrid": []
	},
"SERVICE_RECORD_DELETE": {
		"TablePanel": [
			{ 'display': '요청등록', 'title': "#springMessage('process.resource.000001')", 'type': 'table', 'internal_id': 'requst_regist', 'formType': 'editor'}
                	,{ 'display': '요청부서결재', 'title': "#springMessage('process.resource.000002')", 'type': 'table', 'internal_id': 'req_cust_approval', 'formType': 'editor'}
                        ,{ 'display': 'SM기획결재', 'title': "#springMessage('process.resource.000003')", 'type': 'table', 'internal_id': 'sm_approval', 'formType': 'editor'}
                        ,{ 'display': '요청접수', 'title': "#springMessage('process.resource.000004')", 'type': 'table', 'internal_id': 'requst_rcept', 'formType': 'editor'}
                        ,{ 'display': '처리 및 완료', 'title': "#springMessage('process.resource.000005')", 'type': 'table', 'internal_id': 'proc_complete', 'formType': 'editor'}
                        ,{ 'display': '관리자확인', 'title': "#springMessage('process.resource.000006')", 'type': 'table', 'internal_id': 'manager_cnfirm', 'formType': 'editor'}
                        ,{ 'display': '임시TASK', 'title': "#springMessage('process.resource.000007')", 'type': 'table', 'internal_id': 'temp_link', 'formType': 'editor'}
		],
		"Grid": [],
		"AddGrid": [],
		"AddOperatorGrid": [],
               "MultiTaskGrid": []
	},
"CHANGE": {
		"TablePanel": [
			{ 'display': '변경등록', 'title': "변경등록", 'type': 'table', 'internal_id': 'requst_regist', 'formType': 'editor'}
                	,{ 'display': '변경계획수립', 'title': "변경계획수립", 'type': 'table', 'internal_id': 'change_plan', 'formType': 'editor'}
                        ,{ 'display': 'CAB소집', 'title': "CAB소집", 'type': 'table', 'internal_id': 'cab_noti', 'formType': 'editor'}
                        ,{ 'display': 'CAB소집결과작성', 'title': "CAB소집결과작성", 'type': 'table', 'internal_id': 'cab_result', 'formType': 'editor'}
                        ,{ 'display': 'CAB결과승인', 'title': "CAB결과승인", 'type': 'table', 'internal_id': 'cab_cnfirm', 'formType': 'editor'}
                        ,{ 'display': '변경계획승인', 'title': "변경계획승인", 'type': 'table', 'internal_id': 'change_plan_cnfirm', 'formType': 'editor'}
                        ,{ 'display': '승인자확인', 'title': "승인자확인", 'type': 'table', 'internal_id': 'approver_cnfirm', 'formType': 'editor'}
                        ,{ 'display': '변경수행결과', 'title': "변경수행결과", 'type': 'table', 'internal_id': 'change_result', 'formType': 'editor'}
                        ,{ 'display': '결과확인', 'title': "결과확인", 'type': 'table', 'internal_id': 'result_cnfirm', 'formType': 'editor'}
		],
		"Grid": [],
		"AddGrid": [],
		"AddOperatorGrid": [],
               "MultiTaskGrid": []
	},
"CENTER": {
		"TablePanel": [
			{ 'display': '요청등록', 'title': '요청등록', 'type': 'table', 'internal_id': 'requst_regist', 'formType': 'editor'}
                	,{ 'display': '요청접수', 'title': '요청접수', 'type': 'table', 'internal_id': 'requst_rcept', 'formType': 'editor'}
                        ,{ 'display': '입실/퇴실처리', 'title': '입실/퇴실처리', 'type': 'table', 'internal_id': 'requst_proc', 'formType': 'editor'}                       
		],
		"Grid": [],
		"AddGrid": [],
		"AddOperatorGrid": [],
               "MultiTaskGrid": []
	},
	"SERVICE_MONITORING_INSERT": {
		"TablePanel": [
			{ 'display': '요청등록', 'title': "#springMessage('process.resource.000001')", 'type': 'table', 'internal_id': 'requst_regist', 'formType': 'editor'}
                	,{ 'display': '요청부서결재', 'title': "#springMessage('process.resource.000002')", 'type': 'table', 'internal_id': 'req_cust_approval', 'formType': 'editor'}
                        ,{ 'display': 'SM기획결재', 'title': "#springMessage('process.resource.000003')", 'type': 'table', 'internal_id': 'sm_approval', 'formType': 'editor'}
                        ,{ 'display': '요청접수', 'title': "#springMessage('process.resource.000004')", 'type': 'table', 'internal_id': 'requst_rcept', 'formType': 'editor'}
                        ,{ 'display': '처리 및 완료', 'title': "#springMessage('process.resource.000005')", 'type': 'table', 'internal_id': 'proc_complete', 'formType': 'editor'}
                        ,{ 'display': '관리자확인', 'title': "#springMessage('process.resource.000006')", 'type': 'table', 'internal_id': 'manager_cnfirm', 'formType': 'editor'}
                        ,{ 'display': '임시TASK', 'title': "#springMessage('process.resource.000007')", 'type': 'table', 'internal_id': 'temp_link', 'formType': 'editor'}
		],
		"Grid": [],
		"AddGrid": [],
		"AddOperatorGrid": [],
               "MultiTaskGrid": []
	},
"SERVICE_ENGINEER_SUPPORT": {
		"TablePanel": [
			{ 'display': '요청등록', 'title': "#springMessage('process.resource.000001')", 'type': 'table', 'internal_id': 'requst_regist', 'formType': 'editor'}
                	,{ 'display': '요청부서결재', 'title': "#springMessage('process.resource.000002')", 'type': 'table', 'internal_id': 'req_cust_approval', 'formType': 'editor'}
                        ,{ 'display': 'SM기획결재', 'title': "#springMessage('process.resource.000003')", 'type': 'table', 'internal_id': 'sm_approval', 'formType': 'editor'}
                        ,{ 'display': '요청접수', 'title': "#springMessage('process.resource.000004')", 'type': 'table', 'internal_id': 'requst_rcept', 'formType': 'editor'}
                        ,{ 'display': '처리 및 완료', 'title': "#springMessage('process.resource.000005')", 'type': 'table', 'internal_id': 'proc_complete', 'formType': 'editor'}
                        ,{ 'display': '관리자확인', 'title': "#springMessage('process.resource.000006')", 'type': 'table', 'internal_id': 'manager_cnfirm', 'formType': 'editor'}
                        ,{ 'display': '임시TASK', 'title': "#springMessage('process.resource.000007')", 'type': 'table', 'internal_id': 'temp_link', 'formType': 'editor'}
		],
		"Grid": [],
		"AddGrid": [],
		"AddOperatorGrid": [],
               "MultiTaskGrid": []
	},
"SERVICE_LOWFORMAT": {
		"TablePanel": [
			{ 'display': '요청등록', 'title': "#springMessage('process.resource.000001')", 'type': 'table', 'internal_id': 'requst_regist', 'formType': 'editor'}
                	,{ 'display': '요청부서결재', 'title': "#springMessage('process.resource.000002')", 'type': 'table', 'internal_id': 'req_cust_approval', 'formType': 'editor'}
                        ,{ 'display': 'SM기획결재', 'title': "#springMessage('process.resource.000003')", 'type': 'table', 'internal_id': 'sm_approval', 'formType': 'editor'}
                        ,{ 'display': '요청접수', 'title': "#springMessage('process.resource.000004')", 'type': 'table', 'internal_id': 'requst_rcept', 'formType': 'editor'}
                        ,{ 'display': '처리 및 완료', 'title': "#springMessage('process.resource.000005')", 'type': 'table', 'internal_id': 'proc_complete', 'formType': 'editor'}
                        ,{ 'display': '관리자확인', 'title': "#springMessage('process.resource.000006')", 'type': 'table', 'internal_id': 'manager_cnfirm', 'formType': 'editor'}
                        ,{ 'display': '임시TASK', 'title': "#springMessage('process.resource.000007')", 'type': 'table', 'internal_id': 'temp_link', 'formType': 'editor'}
		],
		"Grid": [],
		"AddGrid": [],
		"AddOperatorGrid": [],
               "MultiTaskGrid": []
	},
"INCIDENT": {
		"TablePanel": [
			{ 'display': '장애등록', 'title': '장애등록', 'type': 'table', 'internal_id': 'requst_regist', 'formType': 'editor'}
                	,{ 'display': '장애접수', 'title': '장애접수', 'type': 'table', 'internal_id': 'requst_rcept', 'formType': 'editor'}
                        ,{ 'display': '처리 및 결과', 'title': '처리 및 결과', 'type': 'table', 'internal_id': 'requst_result', 'formType': 'editor'}                       
                        ,{ 'display': '관리자확인', 'title': '관리자확인', 'type': 'table', 'internal_id': 'result_cnfirm', 'formType': 'editor'}                       
		],
		"Grid": [],
		"AddGrid": [],
		"AddOperatorGrid": [],
               "MultiTaskGrid": []
	},
"PROBLEM": {
		"TablePanel": [
			{ 'display': '문제등록', 'title': '문제등록', 'type': 'table', 'internal_id': 'requst_regist', 'formType': 'editor'}
                	,{ 'display': '문제접수', 'title': '문제접수', 'type': 'table', 'internal_id': 'requst_rcept', 'formType': 'editor'}
                        ,{ 'display': '처리 및 결과', 'title': '처리 및 결과', 'type': 'table', 'internal_id': 'requst_result', 'formType': 'editor'}                       
                        ,{ 'display': '관리자확인', 'title': '관리자확인', 'type': 'table', 'internal_id': 'result_cnfirm', 'formType': 'editor'}                       
		],
		"Grid": [],
		"AddGrid": [],
		"AddOperatorGrid": [],
               "MultiTaskGrid": []
	},
"SERVICE_AM_CARRYOUT": {
		"TablePanel": [
			{ 'display': '요청등록', 'title': "#springMessage('process.resource.000001')", 'type': 'table', 'internal_id': 'requst_regist', 'formType': 'editor'}
                	,{ 'display': '요청부서결재', 'title': "#springMessage('process.resource.000002')", 'type': 'table', 'internal_id': 'req_cust_approval', 'formType': 'editor'}
                        ,{ 'display': 'SM기획결재', 'title': "#springMessage('process.resource.000003')", 'type': 'table', 'internal_id': 'sm_approval', 'formType': 'editor'}
                        ,{ 'display': '요청접수', 'title': "#springMessage('process.resource.000004')", 'type': 'table', 'internal_id': 'requst_rcept', 'formType': 'editor'}
                        ,{ 'display': '처리 및 완료', 'title': "#springMessage('process.resource.000005')", 'type': 'table', 'internal_id': 'proc_complete', 'formType': 'editor'}
                        ,{ 'display': '관리자확인', 'title': "#springMessage('process.resource.000006')", 'type': 'table', 'internal_id': 'manager_cnfirm', 'formType': 'editor'}
                        ,{ 'display': '임시TASK', 'title': "#springMessage('process.resource.000007')", 'type': 'table', 'internal_id': 'temp_link', 'formType': 'editor'}
		],
		"Grid": [],
		"AddGrid": [],
		"AddOperatorGrid": [],
               "MultiTaskGrid": []
	},
"SERVICE_CLEANDAY": {
		"TablePanel": [
			{ 'display': '요청등록', 'title': "#springMessage('process.resource.000001')", 'type': 'table', 'internal_id': 'requst_regist', 'formType': 'editor'}
                	,{ 'display': '요청부서결재', 'title': "#springMessage('process.resource.000002')", 'type': 'table', 'internal_id': 'req_cust_approval', 'formType': 'editor'}
                        ,{ 'display': 'SM기획결재', 'title': "#springMessage('process.resource.000003')", 'type': 'table', 'internal_id': 'sm_approval', 'formType': 'editor'}
                        ,{ 'display': '요청접수', 'title': "#springMessage('process.resource.000004')", 'type': 'table', 'internal_id': 'requst_rcept', 'formType': 'editor'}
                        ,{ 'display': '처리 및 완료', 'title': "#springMessage('process.resource.000005')", 'type': 'table', 'internal_id': 'proc_complete', 'formType': 'editor'}
                        ,{ 'display': '관리자확인', 'title': "#springMessage('process.resource.000006')", 'type': 'table', 'internal_id': 'manager_cnfirm', 'formType': 'editor'}
                        ,{ 'display': '임시TASK', 'title': "#springMessage('process.resource.000007')", 'type': 'table', 'internal_id': 'temp_link', 'formType': 'editor'}
		],
		"Grid": [],
		"AddGrid": [],
		"AddOperatorGrid": [],
               "MultiTaskGrid": []
	},
"SERVICE_POC_MONITOR_INST": {
		"TablePanel": [
			{ 'display': '요청등록', 'title': "#springMessage('process.resource.000001')", 'type': 'table', 'internal_id': 'requst_regist', 'formType': 'editor'}
                	,{ 'display': '요청부서결재', 'title': "#springMessage('process.resource.000002')", 'type': 'table', 'internal_id': 'req_cust_approval', 'formType': 'editor'}
                        ,{ 'display': 'SM기획결재', 'title': "#springMessage('process.resource.000003')", 'type': 'table', 'internal_id': 'sm_approval', 'formType': 'editor'}
                        ,{ 'display': '요청접수', 'title': "#springMessage('process.resource.000004')", 'type': 'table', 'internal_id': 'requst_rcept', 'formType': 'editor'}
                        ,{ 'display': '처리 및 완료', 'title': "#springMessage('process.resource.000005')", 'type': 'table', 'internal_id': 'proc_complete', 'formType': 'editor'}
                        ,{ 'display': '관리자확인', 'title': "#springMessage('process.resource.000006')", 'type': 'table', 'internal_id': 'manager_cnfirm', 'formType': 'editor'}
                        ,{ 'display': '임시TASK', 'title': "#springMessage('process.resource.000007')", 'type': 'table', 'internal_id': 'temp_link', 'formType': 'editor'}
		],
		"Grid": [],
		"AddGrid": [],
		"AddOperatorGrid": [],
               "MultiTaskGrid": []
	},
"SERVICE_CENTER_TOUR": {
		"TablePanel": [
			{ 'display': '요청등록', 'title': "#springMessage('process.resource.000001')", 'type': 'table', 'internal_id': 'requst_regist', 'formType': 'editor'}
                	,{ 'display': '요청부서결재', 'title': "#springMessage('process.resource.000002')", 'type': 'table', 'internal_id': 'req_cust_approval', 'formType': 'editor'}
                        ,{ 'display': 'SM기획결재', 'title': "#springMessage('process.resource.000003')", 'type': 'table', 'internal_id': 'sm_approval', 'formType': 'editor'}
                        ,{ 'display': '요청접수', 'title': "#springMessage('process.resource.000004')", 'type': 'table', 'internal_id': 'requst_rcept', 'formType': 'editor'}
                        ,{ 'display': '처리 및 완료', 'title': "#springMessage('process.resource.000005')", 'type': 'table', 'internal_id': 'proc_complete', 'formType': 'editor'}
                        ,{ 'display': '관리자확인', 'title': "#springMessage('process.resource.000006')", 'type': 'table', 'internal_id': 'manager_cnfirm', 'formType': 'editor'}
                        ,{ 'display': '임시TASK', 'title': "#springMessage('process.resource.000007')", 'type': 'table', 'internal_id': 'temp_link', 'formType': 'editor'}
		],
		"Grid": [],
		"AddGrid": [],
		"AddOperatorGrid": [],
               "MultiTaskGrid": []
	},
"SERVICE_CENTER_MOVE": {
		"TablePanel": [
			{ 'display': '요청등록', 'title': "#springMessage('process.resource.000001')", 'type': 'table', 'internal_id': 'requst_regist', 'formType': 'editor'}
                	,{ 'display': '요청부서결재', 'title': "#springMessage('process.resource.000002')", 'type': 'table', 'internal_id': 'req_cust_approval', 'formType': 'editor'}
                        ,{ 'display': 'SM기획결재', 'title': "#springMessage('process.resource.000003')", 'type': 'table', 'internal_id': 'sm_approval', 'formType': 'editor'}
                        ,{ 'display': '요청접수', 'title': "#springMessage('process.resource.000004')", 'type': 'table', 'internal_id': 'requst_rcept', 'formType': 'editor'}
                        ,{ 'display': '처리 및 완료', 'title': "#springMessage('process.resource.000005')", 'type': 'table', 'internal_id': 'proc_complete', 'formType': 'editor'}
                        ,{ 'display': '관리자확인', 'title': "#springMessage('process.resource.000006')", 'type': 'table', 'internal_id': 'manager_cnfirm', 'formType': 'editor'}
                        ,{ 'display': '임시TASK', 'title': "#springMessage('process.resource.000007')", 'type': 'table', 'internal_id': 'temp_link', 'formType': 'editor'}
		],
		"Grid": [],
		"AddGrid": [],
		"AddOperatorGrid": [],
               "MultiTaskGrid": []
	},
	"SERVICE_MONITORING_DELETE": {
		"TablePanel": [
			{ 'display': '요청등록', 'title': "#springMessage('process.resource.000001')", 'type': 'table', 'internal_id': 'requst_regist', 'formType': 'editor'}
                	,{ 'display': '요청부서결재', 'title': "#springMessage('process.resource.000002')", 'type': 'table', 'internal_id': 'req_cust_approval', 'formType': 'editor'}
                        ,{ 'display': 'SM기획결재', 'title': "#springMessage('process.resource.000003')", 'type': 'table', 'internal_id': 'sm_approval', 'formType': 'editor'}
                        ,{ 'display': '요청접수', 'title': "#springMessage('process.resource.000004')", 'type': 'table', 'internal_id': 'requst_rcept', 'formType': 'editor'}
                        ,{ 'display': '처리 및 완료', 'title': "#springMessage('process.resource.000005')", 'type': 'table', 'internal_id': 'proc_complete', 'formType': 'editor'}
                        ,{ 'display': '관리자확인', 'title': "#springMessage('process.resource.000006')", 'type': 'table', 'internal_id': 'manager_cnfirm', 'formType': 'editor'}
                        ,{ 'display': '임시TASK', 'title': "#springMessage('process.resource.000007')", 'type': 'table', 'internal_id': 'temp_link', 'formType': 'editor'}
		],
		"Grid": [],
		"AddGrid": [],
		"AddOperatorGrid": [],
               "MultiTaskGrid": []
	}
}